<?xml version="1.0" encoding="utf-8"?>
<!-- Generator: Adobe Illustrator 16.0.0, SVG Export Plug-In . SVG Version: 6.00 Build 0)  -->
<!DOCTYPE svg PUBLIC "-//W3C//DTD SVG 1.1//EN" "http://www.w3.org/Graphics/SVG/1.1/DTD/svg11.dtd">
<svg version="1.1" id="Layer_1" xmlns="http://www.w3.org/2000/svg" xmlns:xlink="http://www.w3.org/1999/xlink" x="0px" y="0px"
	 width="200px" height="200px" viewBox="0 0 200 200" enable-background="new 0 0 200 200" xml:space="preserve">
<g id="Layer_2">
	<rect fill="#FFFFFF" fill-opacity="0" width="200" height="200"/>
</g>
<g id="Layer_1_1_" display="none">
	<g display="inline">
		<path fill="#414042" d="M99.859,190.008c-15.264,0-30.554-0.564-45.785,0.148c-17.639,0.826-27.248-12.706-28.5-25.456
			c-1.701-17.334,0.296-34.49,7.212-50.716c4.92-11.543,13.148-19.294,26.019-21.277c2.734-0.417,4.861-0.018,7.125,1.971
			c19.509,17.162,48.765,17.162,68.265-0.013c2.271-1.992,4.434-2.393,7.139-1.966c13.324,2.114,21.559,10.34,26.461,22.335
			c4.842,11.823,6.786,24.241,7.116,36.974c0.19,7.525,0.392,14.99-3.036,22.016c-4.968,10.166-12.432,16.213-24.352,16.043
			C131.639,189.834,115.747,190.008,99.859,190.008z"/>
		<path fill="#414042" d="M145.053,54.682c0.004,25.08-19.953,45.15-44.937,45.185c-24.964,0.039-44.867-19.879-45.042-45.072
			C54.902,30.09,74.995,9.889,99.815,9.809C124.895,9.73,145.044,29.716,145.053,54.682z"/>
	</g>
</g>
<g id="Layer_3" display="none">
	<g display="inline">
		<g>
			<path fill="#414042" d="M82.455,170.639c-11.715,0-23.45-0.435-35.141,0.113c-13.538,0.639-20.913-9.749-21.875-19.534
				c-1.306-13.305,0.227-26.473,5.535-38.926c3.776-8.856,10.091-14.81,19.97-16.333c2.098-0.32,3.731-0.014,5.469,1.516
				c14.974,13.171,37.427,13.167,52.396-0.01c1.741-1.533,3.404-1.84,5.479-1.513c10.229,1.622,16.549,7.94,20.313,17.141
				c3.715,9.074,5.209,18.609,5.459,28.378c0.149,5.776,0.301,11.51-2.33,16.9c-3.811,7.803-9.543,12.439-18.689,12.313
				C106.848,170.508,94.649,170.639,82.455,170.639z"/>
			<path fill="#414042" d="M117.143,66.776c0.002,19.248-15.314,34.652-34.491,34.682c-19.161,0.03-34.437-15.257-34.57-34.595
				c-0.132-18.96,15.289-34.465,34.339-34.528C101.672,32.275,117.135,47.616,117.143,66.776z"/>
		</g>
		<g>
			<path fill="#414042" d="M170.927,56.51h-37.473c-2.24,0-4.073,1.836-4.073,4.073v26.479c0,2.24,1.833,4.073,4.073,4.073h37.473
				c2.24,0,4.073-1.833,4.073-4.073V60.583C175,58.346,173.167,56.51,170.927,56.51z M155.652,73.207v8.968h-6.924v-8.968
				c-1.242-1.008-2.037-2.547-2.037-4.27c0-3.038,2.461-5.502,5.498-5.502c3.039,0,5.498,2.464,5.498,5.502
				C157.688,70.659,156.895,72.198,155.652,73.207z"/>
			<path fill="#414042" d="M145.471,52.44v-7.502c0-4.734,2.006-8.574,4.479-8.574h4.477c2.478,0,4.484,3.839,4.484,8.574v7.502
				h7.942V37.794c0-4.734-4.377-8.574-9.775-8.574h-9.775c-5.402,0-9.775,3.839-9.775,8.574V52.44H145.471z"/>
		</g>
	</g>
</g>
<g id="Layer_4" display="none">
	<g display="inline">
		<path fill="#414042" d="M96.741,75.405L96.741,75.405c-1.454,2.375-2.591,4.819-3.279,7.392
			c-4.453,15.387,1.826,32.368,16.427,40.646c2.379,1.477,4.807,2.443,7.375,3.346c3.01,0.777,5.938,1.318,8.918,1.318
			l18.243,53.961c1.317,3.684,4.318,6.26,7.791,7.377c2.243,0.771,4.606,0.771,7.036-0.204l2.007-0.558
			c3.697-1.254,6.292-4.201,7.386-7.726c0.563-2.222,0.779-4.808-0.145-7.036l-18.293-54.154c3.134-2.584,5.689-5.709,7.729-9.408
			c1.453-2.428,2.557-4.795,3.323-7.371c4.466-15.387-1.87-32.38-16.417-40.729c-2.449-1.464-4.806-2.576-7.377-3.276
			C122.08,54.329,105.096,60.796,96.741,75.405L96.741,75.405z M56.445,61.565h37.852c0.482,0,0.924,0.204,1.186,0.564
			c0.344,0.271,0.553,0.752,0.553,1.177v5.985c0,0.418-0.209,0.909-0.553,1.186c-0.261,0.355-0.704,0.492-1.186,0.492H56.445
			c-0.515,0-0.913-0.136-1.253-0.492c-0.292-0.277-0.501-0.768-0.501-1.186v-5.985c0-0.424,0.209-0.906,0.501-1.177
			C55.532,61.769,55.931,61.565,56.445,61.565L56.445,61.565z M56.445,118.005h35.35c0.491,0,0.899,0.224,1.259,0.58
			c0.276,0.263,0.49,0.688,0.49,1.185v5.91c0,0.486-0.213,0.967-0.49,1.256c-0.36,0.338-0.768,0.484-1.259,0.484h-35.35
			c-0.515,0-0.913-0.146-1.253-0.484c-0.292-0.289-0.501-0.77-0.501-1.256v-5.91c0-0.496,0.209-0.922,0.501-1.185
			C55.532,118.229,55.931,118.005,56.445,118.005L56.445,118.005z M56.445,99.229h30.97c0.486,0,0.896,0.208,1.186,0.471
			c0.34,0.368,0.559,0.774,0.559,1.269v5.917c0,0.474-0.219,0.898-0.559,1.255c-0.29,0.273-0.7,0.471-1.186,0.471h-30.97
			c-0.515,0-0.913-0.196-1.253-0.471c-0.292-0.355-0.501-0.781-0.501-1.255v-5.917c0-0.495,0.209-0.901,0.501-1.269
			C55.532,99.438,55.931,99.229,56.445,99.229L56.445,99.229z M56.445,80.42h30.97c0.486,0,0.896,0.212,1.186,0.501
			c0.34,0.348,0.559,0.758,0.559,1.247v5.925c0,0.478-0.219,0.915-0.559,1.178c-0.29,0.338-0.7,0.553-1.186,0.553h-30.97
			c-0.515,0-0.913-0.214-1.253-0.553c-0.292-0.263-0.501-0.7-0.501-1.178v-5.925c0-0.489,0.209-0.899,0.501-1.247
			C55.532,80.632,55.931,80.42,56.445,80.42L56.445,80.42z M101.757,85.031L101.757,85.031
			c3.882-13.854,18.517-22.003,32.354-17.887c13.863,3.824,22,18.426,17.894,32.293c-3.83,13.856-18.437,21.985-32.284,17.956
			C105.863,113.486,97.715,98.881,101.757,85.031L101.757,85.031z M76.399,34.428L76.399,34.428c-2.018,0-3.673,1.026-3.673,2.561
			c0,1.463,0,4.938,0,4.938h52.137c0,0,0-3.474,0-4.938c0-1.534-1.661-2.561-3.695-2.561h-11.053V13.669
			c-11.492-8.136-22.572-0.201-22.572-0.201v20.96H76.399z M166.637,28.087L166.637,28.087v94.659v3.273l-0.213,27.021
			c0,1.315-0.355,2.577-0.91,3.553l-12.173-36.067c2.771-2.571,5.146-5.568,7.022-8.904c1.464-2.359,2.572-5.159,3.34-7.943
			l0.146-0.148c4.109-14.049-0.373-28.862-10.723-38.49V38.097c0-0.977-0.346-1.652-0.911-2.215
			c-0.755-0.768-1.469-0.979-2.444-0.979h-24.549c-0.926-1.029-2.59-1.597-4.055-1.597h-9.955V21.459h48.596
			c2.02,0,3.487,0.567,4.809,1.822C165.865,24.599,166.637,26.275,166.637,28.087L166.637,28.087z M134.111,159.852L134.111,159.852
			H38.194c-2.018,0-3.549-0.679-4.793-2.021c-1.335-1.237-2.031-2.917-2.031-4.79l0.145-30.295V28.087
			c0-1.812,0.78-3.489,2.018-4.806c1.321-1.255,2.771-1.822,4.796-1.822h48.106v11.847H76.399c-1.253,0-2.905,0.568-3.816,1.597
			H48.15c-0.698,0-1.674,0.21-2.234,0.979c-0.551,0.563-0.905,1.238-0.905,2.215v84.649v3.273l-0.199,17.064
			c0,0.896,0.423,1.663,0.967,2.372c0.697,0.545,1.474,0.916,2.371,0.916h81.298L134.111,159.852z"/>
	</g>
</g>
<g id="Layer_5">
	<g>
		<path fill="#414042" d="M131.531,92.771c-4.168-17.139-21.434-27.644-38.542-23.486C75.853,73.446,65.337,90.7,69.505,107.839
			c4.15,17.129,21.407,27.627,38.549,23.481C125.18,127.145,135.681,109.879,131.531,92.771z M115.316,113.053
			c-1.76,1.777-3.85,3.133-6.239,4.135l1.402,5.826l-7.491,1.827l-1.396-5.785c-7.311,0.827-12.298-1.7-14.949-7.653l7.711-2.539
			c1.505,3.682,4.793,4.902,9.816,3.682c4.729-1.143,6.688-3.31,5.927-6.519c-0.363-1.423-1.168-2.35-2.506-2.749
			c-1.303-0.412-4.18-0.514-8.606-0.325c-4.423,0.198-7.784-0.31-10.076-1.573c-2.289-1.236-3.736-3.113-4.36-5.634
			c-0.649-2.719,0-5.317,1.957-7.774c1.434-1.808,3.608-3.259,6.485-4.339l-1.523-6.283l7.49-1.819l1.529,6.351
			c6.671-0.734,10.821,1.333,12.403,6.308l-7.871,2.218c-0.769-2.308-3.243-2.964-7.394-1.949c-4.169,1.016-5.977,2.633-5.449,4.851
			c0.334,1.368,1.247,2.194,2.732,2.471c1.5,0.295,4.367,0.332,8.593,0.112c4.265-0.197,7.557,0.375,9.896,1.737
			c2.343,1.367,3.885,3.494,4.572,6.414C118.812,107.467,117.931,110.47,115.316,113.053z"/>
		<path fill="#414042" d="M175.689,35.294L3.897,77.011l21.429,88.283L197.13,123.59L175.689,35.294z M29.954,136.116l-8.875-36.51
			c6.428-3.596,10.53-10.325,10.784-17.688l121.23-29.441c3.598,6.423,10.324,10.525,17.688,10.779l8.872,36.498
			c-6.827,3.803-11.028,11.141-10.798,19.003L48.241,148.033C44.834,140.955,37.737,136.38,29.954,136.116z"/>
		<path fill="#414042" d="M55.678,111.106c0.941,3.851-1.428,7.766-5.292,8.682c-3.86,0.954-7.76-1.404-8.695-5.291
			c-0.94-3.856,1.429-7.761,5.29-8.683C50.847,104.857,54.747,107.225,55.678,111.106z"/>
		<path fill="#414042" d="M158.683,86.097c0.927,3.866-1.443,7.755-5.296,8.698c-3.875,0.938-7.761-1.441-8.721-5.309
			c-0.925-3.859,1.452-7.76,5.295-8.703C153.846,79.854,157.728,82.229,158.683,86.097z"/>
	</g>
</g>
</svg>
