<?xml version="1.0" encoding="utf-8"?>
<!-- Generator: Adobe Illustrator 16.0.0, SVG Export Plug-In . SVG Version: 6.00 Build 0)  -->
<!DOCTYPE svg PUBLIC "-//W3C//DTD SVG 1.1//EN" "http://www.w3.org/Graphics/SVG/1.1/DTD/svg11.dtd">
<svg version="1.1" id="Layer_1" xmlns="http://www.w3.org/2000/svg" xmlns:xlink="http://www.w3.org/1999/xlink" x="0px" y="0px"
	 width="200px" height="200px" viewBox="0 0 200 200" enable-background="new 0 0 200 200" xml:space="preserve">
<g id="Layer_2">
	<rect fill="#FFFFFF" fill-opacity="0" width="200" height="200"/>
</g>
<g id="Layer_1_1_" display="none">
	<g display="inline">
		<path fill="#414042" d="M99.859,190.008c-15.264,0-30.554-0.564-45.785,0.148c-17.639,0.826-27.248-12.706-28.5-25.456
			c-1.701-17.334,0.296-34.49,7.212-50.716c4.92-11.543,13.148-19.294,26.019-21.277c2.734-0.417,4.861-0.018,7.125,1.971
			c19.509,17.162,48.765,17.162,68.265-0.013c2.271-1.992,4.434-2.393,7.139-1.966c13.324,2.114,21.559,10.34,26.461,22.335
			c4.842,11.823,6.786,24.241,7.116,36.974c0.19,7.525,0.392,14.99-3.036,22.016c-4.968,10.166-12.432,16.213-24.352,16.043
			C131.639,189.834,115.747,190.008,99.859,190.008z"/>
		<path fill="#414042" d="M145.053,54.682c0.004,25.08-19.953,45.15-44.937,45.185c-24.964,0.039-44.867-19.879-45.042-45.072
			C54.902,30.09,74.995,9.889,99.815,9.809C124.895,9.73,145.044,29.716,145.053,54.682z"/>
	</g>
</g>
<g id="Layer_3" display="none">
	<g display="inline">
		<g>
			<path fill="#414042" d="M82.455,170.639c-11.715,0-23.45-0.435-35.141,0.113c-13.538,0.639-20.913-9.749-21.875-19.534
				c-1.306-13.305,0.227-26.473,5.535-38.926c3.776-8.856,10.091-14.81,19.97-16.333c2.098-0.32,3.731-0.014,5.469,1.516
				c14.974,13.171,37.427,13.167,52.396-0.01c1.741-1.533,3.404-1.84,5.479-1.513c10.229,1.622,16.549,7.94,20.313,17.141
				c3.715,9.074,5.209,18.609,5.459,28.378c0.149,5.776,0.301,11.51-2.33,16.9c-3.811,7.803-9.543,12.439-18.689,12.313
				C106.848,170.508,94.649,170.639,82.455,170.639z"/>
			<path fill="#414042" d="M117.143,66.776c0.002,19.248-15.314,34.652-34.491,34.682c-19.161,0.03-34.437-15.257-34.57-34.595
				c-0.132-18.96,15.289-34.465,34.339-34.528C101.672,32.275,117.135,47.616,117.143,66.776z"/>
		</g>
		<g>
			<path fill="#414042" d="M170.927,56.51h-37.473c-2.24,0-4.073,1.836-4.073,4.073v26.479c0,2.24,1.833,4.073,4.073,4.073h37.473
				c2.24,0,4.073-1.833,4.073-4.073V60.583C175,58.346,173.167,56.51,170.927,56.51z M155.652,73.207v8.968h-6.924v-8.968
				c-1.242-1.008-2.037-2.547-2.037-4.27c0-3.038,2.461-5.502,5.498-5.502c3.039,0,5.498,2.464,5.498,5.502
				C157.688,70.659,156.895,72.198,155.652,73.207z"/>
			<path fill="#414042" d="M145.471,52.44v-7.502c0-4.734,2.006-8.574,4.479-8.574h4.477c2.478,0,4.484,3.839,4.484,8.574v7.502
				h7.942V37.794c0-4.734-4.377-8.574-9.775-8.574h-9.775c-5.402,0-9.775,3.839-9.775,8.574V52.44H145.471z"/>
		</g>
	</g>
</g>
<g id="Layer_4" display="none">
	<g display="inline">
		<path fill="#414042" d="M96.741,75.405L96.741,75.405c-1.454,2.375-2.591,4.819-3.279,7.392
			c-4.453,15.387,1.826,32.368,16.427,40.646c2.379,1.477,4.807,2.443,7.375,3.346c3.01,0.777,5.938,1.318,8.918,1.318
			l18.243,53.961c1.317,3.684,4.318,6.26,7.791,7.377c2.243,0.771,4.606,0.771,7.036-0.204l2.007-0.558
			c3.697-1.254,6.292-4.201,7.386-7.726c0.563-2.222,0.779-4.808-0.145-7.036l-18.293-54.154c3.134-2.584,5.689-5.709,7.729-9.408
			c1.453-2.428,2.557-4.795,3.323-7.371c4.466-15.387-1.87-32.38-16.417-40.729c-2.449-1.464-4.806-2.576-7.377-3.276
			C122.08,54.329,105.096,60.796,96.741,75.405L96.741,75.405z M56.445,61.565h37.852c0.482,0,0.924,0.204,1.186,0.564
			c0.344,0.271,0.553,0.752,0.553,1.177v5.985c0,0.418-0.209,0.909-0.553,1.186c-0.261,0.355-0.704,0.492-1.186,0.492H56.445
			c-0.515,0-0.913-0.136-1.253-0.492c-0.292-0.277-0.501-0.768-0.501-1.186v-5.985c0-0.424,0.209-0.906,0.501-1.177
			C55.532,61.769,55.931,61.565,56.445,61.565L56.445,61.565z M56.445,118.005h35.35c0.491,0,0.899,0.224,1.259,0.58
			c0.276,0.263,0.49,0.688,0.49,1.185v5.91c0,0.486-0.213,0.967-0.49,1.256c-0.36,0.338-0.768,0.484-1.259,0.484h-35.35
			c-0.515,0-0.913-0.146-1.253-0.484c-0.292-0.289-0.501-0.77-0.501-1.256v-5.91c0-0.496,0.209-0.922,0.501-1.185
			C55.532,118.229,55.931,118.005,56.445,118.005L56.445,118.005z M56.445,99.229h30.97c0.486,0,0.896,0.208,1.186,0.471
			c0.34,0.368,0.559,0.774,0.559,1.269v5.917c0,0.474-0.219,0.898-0.559,1.255c-0.29,0.273-0.7,0.471-1.186,0.471h-30.97
			c-0.515,0-0.913-0.196-1.253-0.471c-0.292-0.355-0.501-0.781-0.501-1.255v-5.917c0-0.495,0.209-0.901,0.501-1.269
			C55.532,99.438,55.931,99.229,56.445,99.229L56.445,99.229z M56.445,80.42h30.97c0.486,0,0.896,0.212,1.186,0.501
			c0.34,0.348,0.559,0.758,0.559,1.247v5.925c0,0.478-0.219,0.915-0.559,1.178c-0.29,0.338-0.7,0.553-1.186,0.553h-30.97
			c-0.515,0-0.913-0.214-1.253-0.553c-0.292-0.263-0.501-0.7-0.501-1.178v-5.925c0-0.489,0.209-0.899,0.501-1.247
			C55.532,80.632,55.931,80.42,56.445,80.42L56.445,80.42z M101.757,85.031L101.757,85.031
			c3.882-13.854,18.517-22.003,32.354-17.887c13.863,3.824,22,18.426,17.894,32.293c-3.83,13.856-18.437,21.985-32.284,17.956
			C105.863,113.486,97.715,98.881,101.757,85.031L101.757,85.031z M76.399,34.428L76.399,34.428c-2.018,0-3.673,1.026-3.673,2.561
			c0,1.463,0,4.938,0,4.938h52.137c0,0,0-3.474,0-4.938c0-1.534-1.661-2.561-3.695-2.561h-11.053V13.669
			c-11.492-8.136-22.572-0.201-22.572-0.201v20.96H76.399z M166.637,28.087L166.637,28.087v94.659v3.273l-0.213,27.021
			c0,1.315-0.355,2.577-0.91,3.553l-12.173-36.067c2.771-2.571,5.146-5.568,7.022-8.904c1.464-2.359,2.572-5.159,3.34-7.943
			l0.146-0.148c4.109-14.049-0.373-28.862-10.723-38.49V38.097c0-0.977-0.346-1.652-0.911-2.215
			c-0.755-0.768-1.469-0.979-2.444-0.979h-24.549c-0.926-1.029-2.59-1.597-4.055-1.597h-9.955V21.459h48.596
			c2.02,0,3.487,0.567,4.809,1.822C165.865,24.599,166.637,26.275,166.637,28.087L166.637,28.087z M134.111,159.852L134.111,159.852
			H38.194c-2.018,0-3.549-0.679-4.793-2.021c-1.335-1.237-2.031-2.917-2.031-4.79l0.145-30.295V28.087
			c0-1.812,0.78-3.489,2.018-4.806c1.321-1.255,2.771-1.822,4.796-1.822h48.106v11.847H76.399c-1.253,0-2.905,0.568-3.816,1.597
			H48.15c-0.698,0-1.674,0.21-2.234,0.979c-0.551,0.563-0.905,1.238-0.905,2.215v84.649v3.273l-0.199,17.064
			c0,0.896,0.423,1.663,0.967,2.372c0.697,0.545,1.474,0.916,2.371,0.916h81.298L134.111,159.852z"/>
	</g>
</g>
<g id="Layer_5" display="none">
	<g display="inline">
		<path fill="#414042" d="M124.584,94.449c-3.229-13.295-16.621-21.454-29.917-18.225c-13.297,3.228-21.458,16.624-18.23,29.917
			c3.228,13.299,16.626,21.455,29.92,18.229C119.654,121.139,127.813,107.743,124.584,94.449z M112.014,110.199
			c-1.369,1.374-3.004,2.427-4.863,3.207l1.104,4.525l-5.816,1.409l-1.09-4.478c-5.669,0.63-9.546-1.334-11.599-5.944l5.984-1.974
			c1.172,2.853,3.715,3.804,7.625,2.855c3.664-0.891,5.191-2.576,4.591-5.061c-0.269-1.1-0.908-1.813-1.935-2.133
			c-1.017-0.323-3.246-0.406-6.686-0.248c-3.437,0.151-6.047-0.248-7.825-1.213c-1.776-0.965-2.902-2.428-3.379-4.388
			c-0.51-2.106-0.007-4.119,1.512-6.03c1.118-1.409,2.803-2.529,5.038-3.369l-1.187-4.874l5.816-1.415L100.498,86
			c5.166-0.575,8.395,1.035,9.632,4.892l-6.121,1.722c-0.604-1.787-2.514-2.292-5.74-1.507c-3.232,0.783-4.641,2.041-4.223,3.763
			c0.256,1.056,0.96,1.697,2.12,1.919c1.157,0.222,3.384,0.255,6.678,0.09c3.297-0.16,5.854,0.285,7.674,1.344
			c1.818,1.058,3.012,2.718,3.559,4.985C114.715,105.855,114.029,108.189,112.014,110.199z"/>
		<path fill="#414042" d="M158.867,49.836L25.513,82.218l16.64,68.534l133.361-32.383L158.867,49.836z M45.735,128.098l-6.88-28.34
			c4.987-2.792,8.17-8.018,8.363-13.728l94.108-22.852c2.794,4.984,8.02,8.17,13.73,8.364l6.883,28.336
			c-5.282,2.956-8.551,8.642-8.381,14.738l-93.622,22.735C57.293,131.852,51.781,128.301,45.735,128.098z"/>
		<path fill="#414042" d="M65.713,108.684c0.727,3.004-1.115,6.024-4.116,6.754c-2.997,0.729-6.021-1.112-6.75-4.115
			c-0.729-2.999,1.115-6.021,4.114-6.754C61.964,103.838,64.986,105.684,65.713,108.684z"/>
		<path fill="#414042" d="M145.664,89.269c0.729,3.002-1.111,6.023-4.117,6.752c-2.996,0.731-6.021-1.111-6.754-4.114
			c-0.729-2.998,1.117-6.021,4.117-6.754C141.912,84.427,144.936,86.266,145.664,89.269z"/>
	</g>
</g>
<g id="Layer_6" display="none">
	<g display="inline">
		<g>
			<path fill="#414042" d="M25,72.537h10.758v4.945c-1.284,0.735-2.276,1.676-2.983,2.818c-1.174,1.862-1.969,4.052-2.38,6.586
				l-0.405,2.495c-0.135,0.791-0.431,1.413-0.878,1.862c-0.453,0.45-1.022,0.672-1.701,0.672c-0.707,0-1.284-0.243-1.736-0.735
				C25.228,90.689,25,90.053,25,89.262V72.537z M57.224,72.537v48.05c0,1.06,0.208,1.826,0.613,2.289
				c0.222,0.271,0.425,0.44,0.615,0.506c0.189,0.072,0.817,0.241,1.879,0.517c1.312,0.297,1.959,1.052,1.959,2.248
				c0,0.711-0.351,1.277-1.058,1.717c-0.519,0.328-1.391,0.494-2.62,0.494h-1.349H39.029H37.68c-1.201,0-2.11-0.187-2.72-0.553
				c-0.615-0.367-0.925-0.926-0.925-1.658c0-1.196,0.656-1.951,1.963-2.248c1.068-0.274,1.695-0.443,1.885-0.517
				c0.189-0.063,0.377-0.235,0.573-0.506c0.41-0.463,0.614-1.229,0.614-2.289v-48.05H57.224L57.224,72.537z M71.375,72.537v16.725
				c0,0.791-0.226,1.428-0.679,1.919c-0.447,0.492-1.03,0.735-1.736,0.735c-0.685,0-1.247-0.222-1.695-0.672
				c-0.454-0.449-0.744-1.071-0.879-1.862l-0.411-2.495c-0.411-2.534-1.2-4.724-2.374-6.586c-0.734-1.143-1.727-2.083-2.984-2.818
				v-4.945L71.375,72.537L71.375,72.537z"/>
			<path fill="#414042" d="M89.981,82.92l2.084,8.464l-7.24,26.423c-0.216,0.764-0.327,1.469-0.327,2.125
				c0,1.715,0.803,2.944,2.41,3.678l1.438,0.656c0.895,0.409,1.349,1.09,1.349,2.045c0,1.363-0.995,2.047-2.984,2.047H76.322
				c-1.005,0-1.806-0.213-2.392-0.637c-0.587-0.423-0.876-1.004-0.876-1.738c0-0.789,0.593-1.446,1.796-1.963
				c1.118-0.49,1.944-0.932,2.476-1.326c0.532-0.396,1.044-0.937,1.533-1.62c0.761-1.114,1.39-2.601,1.88-4.451L89.981,82.92z
				 M92.804,72.537h16.475l11.373,48.05c0.217,0.843,0.463,1.59,0.734,2.245c0.243,0.518,0.788,0.943,1.635,1.264
				c0.711,0.309,1.201,0.604,1.474,0.902c0.274,0.307,0.409,0.714,0.409,1.229c0,1.418-1.061,2.129-3.189,2.129h-20.406
				c-0.817,0-1.474-0.196-1.958-0.596c-0.494-0.396-0.738-0.918-0.738-1.576c0-0.541,0.111-0.949,0.328-1.221
				c0.216-0.279,0.707-0.622,1.472-1.027c0.54-0.268,0.925-0.574,1.146-0.896c0.215-0.328,0.323-0.738,0.323-1.235
				c0-0.457-0.036-0.865-0.118-1.218l-1.313-5.935H89.039l1.109-4.865h9.16l-7.529-33.248L92.804,72.537z"/>
			<path fill="#414042" d="M150.547,79.684l20.568,41.841c0.494,0.955,1.16,1.649,2.006,2.084c0.732,0.384,1.23,0.732,1.49,1.065
				c0.261,0.323,0.389,0.776,0.389,1.347c0,0.736-0.271,1.33-0.816,1.765c-0.463,0.384-1.447,0.571-2.947,0.571h-19.18
				c-1.467,0-2.427-0.098-2.865-0.293c-0.949-0.403-1.433-1.1-1.433-2.082c0-0.354,0.099-0.664,0.294-0.916
				c0.188-0.262,0.547-0.584,1.063-0.971c0.929-0.678,1.377-1.305,1.355-1.878c-0.035-0.461-0.281-1.155-0.74-2.081l-20.08-40.453
				c-0.334-0.673-0.687-1.213-1.066-1.605c-0.381-0.4-0.883-0.762-1.512-1.09c-0.551-0.272-0.92-0.572-1.127-0.902
				c-0.201-0.323-0.312-0.769-0.312-1.348c0-0.817,0.298-1.387,0.888-1.72c0.582-0.327,1.629-0.481,3.129-0.481h19.054
				c1.394,0,2.394,0.173,3.005,0.525c0.611,0.354,0.921,0.931,0.921,1.722c0,0.786-0.448,1.482-1.351,2.083
				c-0.41,0.302-0.688,0.555-0.834,0.758c-0.154,0.204-0.228,0.486-0.228,0.839C150.219,78.845,150.329,79.25,150.547,79.684z
				 M140.443,108.402l2.246,4.656l-2.537,4.135c-0.922,1.521-1.383,2.738-1.383,3.638c0,1.31,0.737,2.265,2.205,2.858
				c0.817,0.328,1.377,0.651,1.678,0.984c0.299,0.323,0.453,0.776,0.453,1.346c0,0.771-0.328,1.395-0.984,1.885
				c-0.246,0.193-0.516,0.313-0.814,0.365c-0.309,0.056-0.877,0.086-1.722,0.086h-10.55c-0.873,0-1.561-0.186-2.064-0.551
				c-0.509-0.367-0.762-0.879-0.762-1.537c0-0.517,0.162-0.949,0.475-1.287c0.311-0.338,0.863-0.66,1.654-0.963
				c2.045-0.787,3.627-2.088,4.751-3.881L140.443,108.402z M159.748,91.017l-2.291-4.542l2.291-3.883
				c0.516-0.896,0.775-1.678,0.775-2.329c0-0.596-0.186-1.187-0.549-1.761c-0.377-0.571-0.854-0.998-1.457-1.264l-1.428-0.655
				c-0.273-0.135-0.516-0.4-0.719-0.776c-0.202-0.386-0.307-0.767-0.307-1.148c0-0.65,0.231-1.172,0.691-1.548
				c0.463-0.386,1.078-0.573,1.84-0.573h11.823c0.765,0,1.397,0.163,1.896,0.506c0.51,0.343,0.763,0.786,0.763,1.331
				c0,0.656-0.244,1.225-0.733,1.712c-0.195,0.169-0.767,0.509-1.719,1.032c-1.941,1.057-3.548,2.6-4.828,4.618L159.748,91.017z"/>
		</g>
	</g>
</g>
<g id="Layer_7">
	<g>
		<g>
			<polygon fill="#414042" points="162.3,134.677 101.098,152.703 39.26,134.536 51.945,82.132 149.614,82.132 			"/>
			<g>
				<polygon fill="#414042" points="161.586,134.677 149.614,82.132 121.557,82.132 121.557,146.623 				"/>
			</g>
		</g>
		<g>
			<polygon fill="#414042" points="194.857,69.254 99.925,48.28 5,69.254 5,78.132 99.925,106.723 194.665,78.132 			"/>
			<polygon fill="#414042" points="100.311,97.842 6.283,69.254 100.311,48.28 194.857,69.254 			"/>
		</g>
		<g>
			<g>
				<path fill="#414042" d="M179.395,73.787c-0.183,1.036-1.166,1.731-2.199,1.548l-78.643-0.801
					c-1.036-0.177-1.729-1.166-1.549-2.198l0,0c0.181-1.036,1.166-1.729,2.198-1.548l78.641,0.801
					C178.88,71.766,179.575,72.751,179.395,73.787L179.395,73.787z"/>
				<path fill="#414042" d="M181.102,95.712c0,1.051-1.341,2.89-2.396,2.89h-2.359c-1.054,0-1.58-1.839-1.58-2.89v-23.95
					c0-1.052,0.526-1.032,1.58-1.032h2.359c1.055,0,2.396-0.018,2.396,1.032V95.712z"/>
			</g>
			<path fill="#414042" d="M184.83,101.475c0,3.596-2.919,6.512-6.515,6.512c-3.597,0-6.512-2.916-6.512-6.512
				c0-3.599,2.915-6.515,6.512-6.515C181.913,94.959,184.83,97.875,184.83,101.475z"/>
			<path fill="#414042" d="M186.877,141.093c0,1.344-1.084,3.118-2.425,3.118h-12.116c-1.34,0-2.428-1.774-2.428-3.118l2.428-25.155
				c0-1.338,1.085-2.133,2.421-2.133h7.271c1.341,0,2.425,0.795,2.425,2.133L186.877,141.093z"/>
			<path fill="#414042" d="M183.636,111.019c0,1.787-0.166,2.786-1.552,2.786h-5.849c-1.387,0-1.469-0.999-1.469-2.786v-1.688
				c0-1.784,0.082-1.86,1.469-1.86h5.849c1.386,0,1.552,0.076,1.552,1.86V111.019z"/>
		</g>
		<ellipse fill="#414042" cx="100.634" cy="72.429" rx="12.05" ry="4.334"/>
	</g>
</g>
</svg>
