<?xml version="1.0" encoding="utf-8"?>
<!-- Generator: Adobe Illustrator 16.0.0, SVG Export Plug-In . SVG Version: 6.00 Build 0)  -->
<!DOCTYPE svg PUBLIC "-//W3C//DTD SVG 1.1//EN" "http://www.w3.org/Graphics/SVG/1.1/DTD/svg11.dtd">
<svg version="1.1" id="Layer_1" xmlns="http://www.w3.org/2000/svg" xmlns:xlink="http://www.w3.org/1999/xlink" x="0px" y="0px"
	 width="200px" height="200px" viewBox="0 0 200 200" enable-background="new 0 0 200 200" xml:space="preserve">
<g id="Layer_2" display="none">
	<rect display="inline" fill="#FFFFFF" fill-opacity="0" width="199" height="200"/>
</g>
<g id="Layer_1_1_" display="none">
	<g display="inline">
		<path fill="#414042" d="M99.859,190.008c-15.264,0-30.554-0.564-45.785,0.148c-17.639,0.826-27.248-12.706-28.5-25.456
			c-1.701-17.334,0.296-34.49,7.212-50.716c4.92-11.543,13.148-19.294,26.019-21.277c2.734-0.417,4.861-0.018,7.125,1.971
			c19.509,17.162,48.765,17.162,68.265-0.013c2.271-1.992,4.434-2.393,7.139-1.966c13.324,2.114,21.559,10.34,26.461,22.335
			c4.842,11.823,6.786,24.241,7.116,36.974c0.19,7.525,0.392,14.99-3.036,22.016c-4.968,10.166-12.432,16.213-24.352,16.043
			C131.639,189.834,115.747,190.008,99.859,190.008z"/>
		<path fill="#414042" d="M145.053,54.682c0.004,25.08-19.953,45.15-44.937,45.185c-24.964,0.039-44.867-19.879-45.042-45.072
			C54.902,30.09,74.995,9.889,99.815,9.809C124.895,9.73,145.044,29.716,145.053,54.682z"/>
	</g>
</g>
<g id="Layer_3" display="none">
	<g display="inline">
		<g>
			<path fill="#414042" d="M82.455,170.639c-11.715,0-23.45-0.435-35.141,0.113c-13.538,0.639-20.913-9.749-21.875-19.534
				c-1.306-13.305,0.227-26.473,5.535-38.926c3.776-8.856,10.091-14.81,19.97-16.333c2.098-0.32,3.731-0.014,5.469,1.516
				c14.974,13.171,37.427,13.167,52.396-0.01c1.741-1.533,3.404-1.84,5.479-1.513c10.229,1.622,16.549,7.94,20.313,17.141
				c3.715,9.074,5.209,18.609,5.459,28.378c0.149,5.776,0.301,11.51-2.33,16.9c-3.811,7.803-9.543,12.439-18.689,12.313
				C106.848,170.508,94.649,170.639,82.455,170.639z"/>
			<path fill="#414042" d="M117.143,66.776c0.002,19.248-15.314,34.652-34.491,34.682c-19.161,0.03-34.437-15.257-34.57-34.595
				c-0.132-18.96,15.289-34.465,34.339-34.528C101.672,32.275,117.135,47.616,117.143,66.776z"/>
		</g>
		<g>
			<path fill="#414042" d="M170.927,56.51h-37.473c-2.24,0-4.073,1.836-4.073,4.073v26.479c0,2.24,1.833,4.073,4.073,4.073h37.473
				c2.24,0,4.073-1.833,4.073-4.073V60.583C175,58.346,173.167,56.51,170.927,56.51z M155.652,73.207v8.968h-6.924v-8.968
				c-1.242-1.008-2.037-2.547-2.037-4.27c0-3.038,2.461-5.502,5.498-5.502c3.039,0,5.498,2.464,5.498,5.502
				C157.688,70.659,156.895,72.198,155.652,73.207z"/>
			<path fill="#414042" d="M145.471,52.44v-7.502c0-4.734,2.006-8.574,4.479-8.574h4.477c2.478,0,4.484,3.839,4.484,8.574v7.502
				h7.942V37.794c0-4.734-4.377-8.574-9.775-8.574h-9.775c-5.402,0-9.775,3.839-9.775,8.574V52.44H145.471z"/>
		</g>
	</g>
</g>
<g id="Layer_4" display="none">
	<g display="inline">
		<path fill="#414042" d="M96.741,75.405L96.741,75.405c-1.454,2.375-2.591,4.819-3.279,7.392
			c-4.453,15.387,1.826,32.368,16.427,40.646c2.379,1.477,4.807,2.443,7.375,3.346c3.01,0.777,5.938,1.318,8.918,1.318
			l18.243,53.961c1.317,3.684,4.318,6.26,7.791,7.377c2.243,0.771,4.606,0.771,7.036-0.204l2.007-0.558
			c3.697-1.254,6.292-4.201,7.386-7.726c0.563-2.222,0.779-4.808-0.145-7.036l-18.293-54.154c3.134-2.584,5.689-5.709,7.729-9.408
			c1.453-2.428,2.557-4.795,3.323-7.371c4.466-15.387-1.87-32.38-16.417-40.729c-2.449-1.464-4.806-2.576-7.377-3.276
			C122.08,54.329,105.096,60.796,96.741,75.405L96.741,75.405z M56.445,61.565h37.852c0.482,0,0.924,0.204,1.186,0.564
			c0.344,0.271,0.553,0.752,0.553,1.177v5.985c0,0.418-0.209,0.909-0.553,1.186c-0.261,0.355-0.704,0.492-1.186,0.492H56.445
			c-0.515,0-0.913-0.136-1.253-0.492c-0.292-0.277-0.501-0.768-0.501-1.186v-5.985c0-0.424,0.209-0.906,0.501-1.177
			C55.532,61.769,55.931,61.565,56.445,61.565L56.445,61.565z M56.445,118.005h35.35c0.491,0,0.899,0.224,1.259,0.58
			c0.276,0.263,0.49,0.688,0.49,1.185v5.91c0,0.486-0.213,0.967-0.49,1.256c-0.36,0.338-0.768,0.484-1.259,0.484h-35.35
			c-0.515,0-0.913-0.146-1.253-0.484c-0.292-0.289-0.501-0.77-0.501-1.256v-5.91c0-0.496,0.209-0.922,0.501-1.185
			C55.532,118.229,55.931,118.005,56.445,118.005L56.445,118.005z M56.445,99.229h30.97c0.486,0,0.896,0.208,1.186,0.471
			c0.34,0.368,0.559,0.774,0.559,1.269v5.917c0,0.474-0.219,0.898-0.559,1.255c-0.29,0.273-0.7,0.471-1.186,0.471h-30.97
			c-0.515,0-0.913-0.196-1.253-0.471c-0.292-0.355-0.501-0.781-0.501-1.255v-5.917c0-0.495,0.209-0.901,0.501-1.269
			C55.532,99.438,55.931,99.229,56.445,99.229L56.445,99.229z M56.445,80.42h30.97c0.486,0,0.896,0.212,1.186,0.501
			c0.34,0.348,0.559,0.758,0.559,1.247v5.925c0,0.478-0.219,0.915-0.559,1.178c-0.29,0.338-0.7,0.553-1.186,0.553h-30.97
			c-0.515,0-0.913-0.214-1.253-0.553c-0.292-0.263-0.501-0.7-0.501-1.178v-5.925c0-0.489,0.209-0.899,0.501-1.247
			C55.532,80.632,55.931,80.42,56.445,80.42L56.445,80.42z M101.757,85.031L101.757,85.031
			c3.882-13.854,18.517-22.003,32.354-17.887c13.863,3.824,22,18.426,17.894,32.293c-3.83,13.856-18.437,21.985-32.284,17.956
			C105.863,113.486,97.715,98.881,101.757,85.031L101.757,85.031z M76.399,34.428L76.399,34.428c-2.018,0-3.673,1.026-3.673,2.561
			c0,1.463,0,4.938,0,4.938h52.137c0,0,0-3.474,0-4.938c0-1.534-1.661-2.561-3.695-2.561h-11.053V13.669
			c-11.492-8.136-22.572-0.201-22.572-0.201v20.96H76.399z M166.637,28.087L166.637,28.087v94.659v3.273l-0.213,27.021
			c0,1.315-0.355,2.577-0.91,3.553l-12.173-36.067c2.771-2.571,5.146-5.568,7.022-8.904c1.464-2.359,2.572-5.159,3.34-7.943
			l0.146-0.148c4.109-14.049-0.373-28.862-10.723-38.49V38.097c0-0.977-0.346-1.652-0.911-2.215
			c-0.755-0.768-1.469-0.979-2.444-0.979h-24.549c-0.926-1.029-2.59-1.597-4.055-1.597h-9.955V21.459h48.596
			c2.02,0,3.487,0.567,4.809,1.822C165.865,24.599,166.637,26.275,166.637,28.087L166.637,28.087z M134.111,159.852L134.111,159.852
			H38.194c-2.018,0-3.549-0.679-4.793-2.021c-1.335-1.237-2.031-2.917-2.031-4.79l0.145-30.295V28.087
			c0-1.812,0.78-3.489,2.018-4.806c1.321-1.255,2.771-1.822,4.796-1.822h48.106v11.847H76.399c-1.253,0-2.905,0.568-3.816,1.597
			H48.15c-0.698,0-1.674,0.21-2.234,0.979c-0.551,0.563-0.905,1.238-0.905,2.215v84.649v3.273l-0.199,17.064
			c0,0.896,0.423,1.663,0.967,2.372c0.697,0.545,1.474,0.916,2.371,0.916h81.298L134.111,159.852z"/>
	</g>
</g>
<g id="Layer_5" display="none">
	<g display="inline">
		<path fill="#414042" d="M124.584,94.449c-3.229-13.295-16.621-21.454-29.917-18.225c-13.297,3.228-21.458,16.624-18.23,29.917
			c3.228,13.299,16.626,21.455,29.92,18.229C119.654,121.139,127.813,107.743,124.584,94.449z M112.014,110.199
			c-1.369,1.374-3.004,2.427-4.863,3.207l1.104,4.525l-5.816,1.409l-1.09-4.478c-5.669,0.63-9.546-1.334-11.599-5.944l5.984-1.974
			c1.172,2.853,3.715,3.804,7.625,2.855c3.664-0.891,5.191-2.576,4.591-5.061c-0.269-1.1-0.908-1.813-1.935-2.133
			c-1.017-0.323-3.246-0.406-6.686-0.248c-3.437,0.151-6.047-0.248-7.825-1.213c-1.776-0.965-2.902-2.428-3.379-4.388
			c-0.51-2.106-0.007-4.119,1.512-6.03c1.118-1.409,2.803-2.529,5.038-3.369l-1.187-4.874l5.816-1.415L100.498,86
			c5.166-0.575,8.395,1.035,9.632,4.892l-6.121,1.722c-0.604-1.787-2.514-2.292-5.74-1.507c-3.232,0.783-4.641,2.041-4.223,3.763
			c0.256,1.056,0.96,1.697,2.12,1.919c1.157,0.222,3.384,0.255,6.678,0.09c3.297-0.16,5.854,0.285,7.674,1.344
			c1.818,1.058,3.012,2.718,3.559,4.985C114.715,105.855,114.029,108.189,112.014,110.199z"/>
		<path fill="#414042" d="M158.867,49.836L25.513,82.218l16.64,68.534l133.361-32.383L158.867,49.836z M45.735,128.098l-6.88-28.34
			c4.987-2.792,8.17-8.018,8.363-13.728l94.108-22.852c2.794,4.984,8.02,8.17,13.73,8.364l6.883,28.336
			c-5.282,2.956-8.551,8.642-8.381,14.738l-93.622,22.735C57.293,131.852,51.781,128.301,45.735,128.098z"/>
		<path fill="#414042" d="M65.713,108.684c0.727,3.004-1.115,6.024-4.116,6.754c-2.997,0.729-6.021-1.112-6.75-4.115
			c-0.729-2.999,1.115-6.021,4.114-6.754C61.964,103.838,64.986,105.684,65.713,108.684z"/>
		<path fill="#414042" d="M145.664,89.269c0.729,3.002-1.111,6.023-4.117,6.752c-2.996,0.731-6.021-1.111-6.754-4.114
			c-0.729-2.998,1.117-6.021,4.117-6.754C141.912,84.427,144.936,86.266,145.664,89.269z"/>
	</g>
</g>
<g id="Layer_6" display="none">
	<g display="inline">
		<g>
			<path fill="#414042" d="M25,72.537h10.758v4.945c-1.284,0.735-2.276,1.676-2.983,2.818c-1.174,1.862-1.969,4.052-2.38,6.586
				l-0.405,2.495c-0.135,0.791-0.431,1.413-0.878,1.862c-0.453,0.45-1.022,0.672-1.701,0.672c-0.707,0-1.284-0.243-1.736-0.735
				C25.228,90.689,25,90.053,25,89.262V72.537z M57.224,72.537v48.05c0,1.06,0.208,1.826,0.613,2.289
				c0.222,0.271,0.425,0.44,0.615,0.506c0.189,0.072,0.817,0.241,1.879,0.517c1.312,0.297,1.959,1.052,1.959,2.248
				c0,0.711-0.351,1.277-1.058,1.717c-0.519,0.328-1.391,0.494-2.62,0.494h-1.349H39.029H37.68c-1.201,0-2.11-0.187-2.72-0.553
				c-0.615-0.367-0.925-0.926-0.925-1.658c0-1.196,0.656-1.951,1.963-2.248c1.068-0.274,1.695-0.443,1.885-0.517
				c0.189-0.063,0.377-0.235,0.573-0.506c0.41-0.463,0.614-1.229,0.614-2.289v-48.05H57.224L57.224,72.537z M71.375,72.537v16.725
				c0,0.791-0.226,1.428-0.679,1.919c-0.447,0.492-1.03,0.735-1.736,0.735c-0.685,0-1.247-0.222-1.695-0.672
				c-0.454-0.449-0.744-1.071-0.879-1.862l-0.411-2.495c-0.411-2.534-1.2-4.724-2.374-6.586c-0.734-1.143-1.727-2.083-2.984-2.818
				v-4.945L71.375,72.537L71.375,72.537z"/>
			<path fill="#414042" d="M89.981,82.92l2.084,8.464l-7.24,26.423c-0.216,0.764-0.327,1.469-0.327,2.125
				c0,1.715,0.803,2.944,2.41,3.678l1.438,0.656c0.895,0.409,1.349,1.09,1.349,2.045c0,1.363-0.995,2.047-2.984,2.047H76.322
				c-1.005,0-1.806-0.213-2.392-0.637c-0.587-0.423-0.876-1.004-0.876-1.738c0-0.789,0.593-1.446,1.796-1.963
				c1.118-0.49,1.944-0.932,2.476-1.326c0.532-0.396,1.044-0.937,1.533-1.62c0.761-1.114,1.39-2.601,1.88-4.451L89.981,82.92z
				 M92.804,72.537h16.475l11.373,48.05c0.217,0.843,0.463,1.59,0.734,2.245c0.243,0.518,0.788,0.943,1.635,1.264
				c0.711,0.309,1.201,0.604,1.474,0.902c0.274,0.307,0.409,0.714,0.409,1.229c0,1.418-1.061,2.129-3.189,2.129h-20.406
				c-0.817,0-1.474-0.196-1.958-0.596c-0.494-0.396-0.738-0.918-0.738-1.576c0-0.541,0.111-0.949,0.328-1.221
				c0.216-0.279,0.707-0.622,1.472-1.027c0.54-0.268,0.925-0.574,1.146-0.896c0.215-0.328,0.323-0.738,0.323-1.235
				c0-0.457-0.036-0.865-0.118-1.218l-1.313-5.935H89.039l1.109-4.865h9.16l-7.529-33.248L92.804,72.537z"/>
			<path fill="#414042" d="M150.547,79.684l20.568,41.841c0.494,0.955,1.16,1.649,2.006,2.084c0.732,0.384,1.23,0.732,1.49,1.065
				c0.261,0.323,0.389,0.776,0.389,1.347c0,0.736-0.271,1.33-0.816,1.765c-0.463,0.384-1.447,0.571-2.947,0.571h-19.18
				c-1.467,0-2.427-0.098-2.865-0.293c-0.949-0.403-1.433-1.1-1.433-2.082c0-0.354,0.099-0.664,0.294-0.916
				c0.188-0.262,0.547-0.584,1.063-0.971c0.929-0.678,1.377-1.305,1.355-1.878c-0.035-0.461-0.281-1.155-0.74-2.081l-20.08-40.453
				c-0.334-0.673-0.687-1.213-1.066-1.605c-0.381-0.4-0.883-0.762-1.512-1.09c-0.551-0.272-0.92-0.572-1.127-0.902
				c-0.201-0.323-0.312-0.769-0.312-1.348c0-0.817,0.298-1.387,0.888-1.72c0.582-0.327,1.629-0.481,3.129-0.481h19.054
				c1.394,0,2.394,0.173,3.005,0.525c0.611,0.354,0.921,0.931,0.921,1.722c0,0.786-0.448,1.482-1.351,2.083
				c-0.41,0.302-0.688,0.555-0.834,0.758c-0.154,0.204-0.228,0.486-0.228,0.839C150.219,78.845,150.329,79.25,150.547,79.684z
				 M140.443,108.402l2.246,4.656l-2.537,4.135c-0.922,1.521-1.383,2.738-1.383,3.638c0,1.31,0.737,2.265,2.205,2.858
				c0.817,0.328,1.377,0.651,1.678,0.984c0.299,0.323,0.453,0.776,0.453,1.346c0,0.771-0.328,1.395-0.984,1.885
				c-0.246,0.193-0.516,0.313-0.814,0.365c-0.309,0.056-0.877,0.086-1.722,0.086h-10.55c-0.873,0-1.561-0.186-2.064-0.551
				c-0.509-0.367-0.762-0.879-0.762-1.537c0-0.517,0.162-0.949,0.475-1.287c0.311-0.338,0.863-0.66,1.654-0.963
				c2.045-0.787,3.627-2.088,4.751-3.881L140.443,108.402z M159.748,91.017l-2.291-4.542l2.291-3.883
				c0.516-0.896,0.775-1.678,0.775-2.329c0-0.596-0.186-1.187-0.549-1.761c-0.377-0.571-0.854-0.998-1.457-1.264l-1.428-0.655
				c-0.273-0.135-0.516-0.4-0.719-0.776c-0.202-0.386-0.307-0.767-0.307-1.148c0-0.65,0.231-1.172,0.691-1.548
				c0.463-0.386,1.078-0.573,1.84-0.573h11.823c0.765,0,1.397,0.163,1.896,0.506c0.51,0.343,0.763,0.786,0.763,1.331
				c0,0.656-0.244,1.225-0.733,1.712c-0.195,0.169-0.767,0.509-1.719,1.032c-1.941,1.057-3.548,2.6-4.828,4.618L159.748,91.017z"/>
		</g>
	</g>
</g>
<g id="Layer_7" display="none">
	<g display="inline">
		<g>
			<polygon fill="#414042" points="149.159,127.475 100.852,141.703 52.042,127.363 62.054,86 139.146,86 			"/>
			<g>
				<polygon fill="#414042" points="148.596,127.475 139.146,86 117,86 117,136.904 				"/>
			</g>
		</g>
		<g>
			<polygon fill="#414042" points="174.857,75.835 99.926,59.28 25,75.835 25,82.843 99.926,105.41 174.706,82.843 			"/>
			<polygon fill="#414042" points="100.23,98.4 26.012,75.835 100.23,59.28 174.857,75.835 			"/>
		</g>
		<g>
			<g>
				<path fill="#414042" d="M162.652,79.413c-0.144,0.818-0.92,1.367-1.735,1.222l-62.074-0.632c-0.818-0.14-1.365-0.92-1.223-1.735
					l0,0c0.143-0.818,0.92-1.364,1.735-1.222l62.073,0.632C162.246,77.818,162.795,78.595,162.652,79.413L162.652,79.413z"/>
				<path fill="#414042" d="M164,96.719c0,0.83-1.059,2.281-1.891,2.281h-1.862c-0.832,0-1.247-1.451-1.247-2.281V77.815
					c0-0.83,0.415-0.815,1.247-0.815h1.862c0.832,0,1.891-0.014,1.891,0.815V96.719z"/>
			</g>
			<path fill="#414042" d="M166.943,101.268c0,2.838-2.305,5.14-5.143,5.14c-2.839,0-5.14-2.302-5.14-5.14
				c0-2.841,2.301-5.143,5.14-5.143C164.641,96.125,166.943,98.426,166.943,101.268z"/>
			<path fill="#414042" d="M168.559,132.539c0,1.061-0.855,2.461-1.914,2.461h-9.563c-1.058,0-1.916-1.4-1.916-2.461l1.916-19.855
				c0-1.057,0.856-1.684,1.911-1.684h5.738c1.059,0,1.914,0.627,1.914,1.684L168.559,132.539z"/>
			<path fill="#414042" d="M166,108.801c0,1.41-0.131,2.199-1.225,2.199h-4.616c-1.095,0-1.159-0.789-1.159-2.199v-1.332
				c0-1.408,0.064-1.469,1.159-1.469h4.616c1.094,0,1.225,0.061,1.225,1.469V108.801z"/>
		</g>
		<ellipse fill="#414042" cx="100.485" cy="78.341" rx="9.511" ry="3.421"/>
	</g>
</g>
<g id="Layer_8" display="none">
	<path display="inline" fill="#414042" d="M174.75,90.738v63.684h-150V90.738h66.754v12.77h16.488v-12.77H174.75L174.75,90.738z
		 M75.016,44.83h49.458h1.135v1.131v16.973v1.134h-1.135h-5.015h-1.123v-1.134V51.296H81.159v11.638v1.134h-1.131h-5.011h-1.128
		v-1.134V45.961V44.83H75.016z M24.75,64.068h10.506v-1.619h4.04v1.619h1.45v-1.619h4.048v1.619h1.289v-1.619h4.2v1.619h100.224
		v-1.619h4.039v1.619h1.292v-1.619h4.037v1.619h1.458v-1.619h4.033v1.619h9.384v24.081h-66.758V73.606H91.504v14.542H24.75V64.068z
		 M94.095,76.187h11.313v24.731H94.095V76.187z M96.839,91.707h5.815v5.819h-5.815V91.707z"/>
</g>
<g id="Layer_9" display="none">
	<g display="inline">
		<path fill="#414042" d="M127.883,67.269c10.961,0.021,19.814-8.868,19.805-19.812c-0.012-10.9-8.946-19.829-19.787-19.707
			c-10.789-0.111-19.754,8.764-19.758,19.671C108.141,58.422,116.918,67.243,127.883,67.269z"/>
		<path fill="#414042" d="M111.257,161.945c-0.495,3.472-0.428,6.968-0.36,10.55c2.004-0.468,3.869-0.896,5.857-1.356
			c-1.811-3.193-3.52-6.207-5.227-9.219C111.439,161.932,111.352,161.938,111.257,161.945z"/>
		<path fill="#414042" d="M77.643,166.436c-0.861,1.521-1.729,3.045-2.668,4.688c1.979,0.457,3.825,0.882,5.854,1.351
			c0.061-3.607,0.132-7.082-0.5-10.543C79.342,163.424,78.496,164.932,77.643,166.436z"/>
		<path fill="#414042" d="M64.374,83.822c10.965,0.021,19.754-8.861,19.812-19.686c0.053-10.865-8.822-19.965-19.976-19.865
			c-10.593,0.1-19.554,8.704-19.568,19.757C44.627,74.922,53.445,83.804,64.374,83.822z"/>
		<path fill="#414042" d="M174.205,106.415c-0.219-0.386-0.314-0.839-0.45-1.269c-0.879-2.686-1.757-5.371-2.629-8.061
			c-0.739-2.282-1.461-4.579-2.211-6.861c-0.55-1.679-0.864-3.454-1.679-4.997c-2.379-4.507-5.657-7.765-9.992-10.015
			c-0.079-0.043-0.371-0.085-0.453-0.128C156.26,74.815,156,74.5,155,74.261v-0.003c0,0-0.287-0.222-1.115-0.507
			c-0.082-0.028-0.092-0.064-0.174-0.096c-0.395-0.143-0.752-0.282-1.154-0.411c-0.086-0.025-0.152-0.057-0.238-0.086
			c-0.107-0.039-0.201-0.071-0.316-0.107c-0.061-0.021-0.113-0.029-0.178-0.043c-0.189-0.05-0.373-0.057-0.563-0.036
			c-0.031,0.007-0.064-0.011-0.098-0.004c-0.543-0.114-1.146-0.218-1.793-0.311c-0.234-0.079,0.072-0.125-0.105-0.086
			c-0.847-0.1-2.259-0.178-2.908-0.218c-0.217-0.01-0.357-0.02-0.357-0.024v0.014v0.607V74h-0.014l0.027-0.864l-35.242,0.174
			c-4.187-0.011-8.121,0.329-11.84,2.265c-4.153,2.157-7.472,4.945-9.771,9.02c-1.242,2.2-2.257,4.399-3.321,6.692
			c-0.289,0.621-0.554,0.723-1.182,0.372c-0.075-0.043-0.161-0.089-0.236-0.128c-1.607-1.146-3.689-1.833-5.711-2.194l0.029-0.051
			c0,0-0.568-0.071-1.361-0.144c-1.357-0.171-2.579-0.682-3.55-0.693c-0.143,0-0.268-0.451-0.407-0.451c-0.064,0-0.143,0-0.204,0
			c-0.514,0-0.993,0.447-1.35,0.486c-6.182-0.029-12.364,0.543-18.55,0.578c-1.372,0.008-2.771,0.358-4.114,0.622
			c-4.65,0.918-8.697,3.181-12.018,6.585c-1.557,1.596-3,3.407-3.811,5.472c-0.975,2.5-1.65,5.161-2.446,7.739
			c-1.043,3.351-2.064,6.73-3.114,10.088c-1.015,3.25-2.075,6.492-3.061,9.758c-0.068,0.229-0.1,0.508-0.085,0.775
			c0.014,0.269,0.071,0.533,0.189,0.729c1.811,3.058,3.629,6.11,5.568,9.086c1.161,1.778,2.546,3.41,3.882,5.179
			c0.154-0.254,0.261-0.379,0.311-0.521c1.132-3.298,2.268-6.591,3.389-9.884c1.45-4.25,2.886-8.504,4.357-12.742
			c0.082-0.231,0.479-0.354,0.729-0.524c0.104,0.282,0.343,0.597,0.286,0.847c-0.29,1.261-0.65,2.508-0.986,3.758
			c-1.05,3.906-2.093,7.811-3.157,11.715c-0.839,3.085-1.721,6.16-2.536,9.253c-0.079,0.312,0.061,0.804,0.282,1.047
			c2.9,3.183,6.068,6.078,9.454,8.739c4.707,3.693,9.771,6.797,15.165,9.383c0.986,0.471,2.003,0.889,3.043,1.346
			c0.5-1.085,0.946-2.066,1.396-3.043c1.5-3.261,3-6.518,4.507-9.773c1.15-2.486,2.132-5.072,3.497-7.439
			c3.053-5.29,7.786-7.992,13.875-8.115c5.278-0.105,10.561-0.053,15.847-0.011c3.242,0.024,6.278,0.854,8.946,2.771
			c0.864,0.623,1.7,1.313,2.546,1.986c0.879,0.973,2.387,3.15,4.665,8.082c2.371,5.15,4.746,10.313,7.144,15.512
			c0.34-0.117,0.617-0.192,0.879-0.308c4.41-1.976,8.64-4.282,12.652-6.993c5.715-3.856,10.84-8.386,15.4-13.539
			c0.281-0.317,0.443-0.851,0.445-1.281c0-3.129-0.066-6.258-0.082-9.391c-0.043-8.65-0.07-17.304-0.1-25.949
			c-0.011-1.779-0.031-3.559,0.016-5.336c0.01-0.293,0.332-0.58,0.511-0.869c0.239,0.203,0.601,0.36,0.696,0.615
			c0.507,1.303,0.957,2.631,1.406,3.956c1.043,3.048,2.074,6.093,3.114,9.144c0.89,2.629,1.778,5.254,2.679,7.88
			c0.644,1.878,1.301,3.75,2.019,5.827c0.577-1.172,1.125-2.131,1.543-3.143c1.226-2.945,2.504-5.879,3.557-8.886
			c0.919-2.614,1.634-5.308,2.275-8.004C174.447,109.654,175.115,108.044,174.205,106.415z M96.582,134.466
			c-7.879,0-14.265-6.386-14.265-14.265s6.386-14.266,14.265-14.266c7.882,0,14.27,6.387,14.27,14.266
			S104.464,134.466,96.582,134.466z"/>
	</g>
</g>
<g id="Layer_10" display="none">
	<g display="inline">
		<path fill="#414042" d="M25,14.294v144.647c0,14.809,11.964,26.765,26.769,26.765c6.05,0,11.614-1.942,16.063-5.383
			c4.462,3.44,10.094,5.383,16.059,5.383c6.083,0,11.584-1.942,16.071-5.383c4.462,3.44,10.085,5.383,16.063,5.383
			c6.07,0,11.601-1.942,16.084-5.383c4.475,3.44,10.06,5.383,16.041,5.383c14.802,0,26.85-11.956,26.85-26.765V14.294H25z
			 M67.832,35.727h64.277V57.16H67.832V35.727z M153.533,110.766H46.37V100h107.164L153.533,110.766L153.533,110.766z
			 M153.533,89.303H46.37V78.542h107.164L153.533,89.303L153.533,89.303z M145.593,162.909v-13.483
			c-4.226-1.232-7.282-3.039-9.258-5.453c-1.972-2.44-2.942-5.388-2.942-8.879c0-3.475,1.127-6.521,3.318-8.855
			c2.288-2.44,5.15-3.774,8.882-4.18v-3.162h4.687v3.162c3.41,0.451,6.154,1.582,8.186,3.574c2.044,1.883,3.348,4.45,3.881,7.7
			l-8.174,0.997c-0.48-2.508-1.832-4.247-3.893-5.125v12.626c5.166,1.381,8.718,3.171,10.604,5.387
			c1.838,2.208,2.82,5.087,2.82,8.574c0,3.851-1.212,7.117-3.571,9.836c-2.339,2.66-5.69,4.331-9.854,4.905v6.117h-4.686v-6.017
			c-3.73-0.45-6.746-1.807-9.009-4.069c-2.364-2.363-3.804-5.619-4.476-9.789l8.4-0.983c0.297,1.739,0.979,3.149,1.883,4.458
			C143.381,161.482,144.457,162.386,145.593,162.909L145.593,162.909z M145.593,129.104c-1.288,0.451-2.271,1.131-3.048,2.184
			c-0.684,1.089-1.057,2.189-1.057,3.428c0,1.127,0.301,2.189,0.972,3.17c0.685,0.988,1.765,1.762,3.133,2.34V129.104
			L145.593,129.104z M150.277,163.445c1.597-0.309,2.965-1.141,3.936-2.297c0.988-1.203,1.541-2.639,1.541-4.222
			c0-1.461-0.46-2.673-1.313-3.728c-0.828-1.057-2.256-1.813-4.164-2.411V163.445z"/>
	</g>
</g>
<g id="Layer_11" display="none">
	<g display="inline">
		<polygon fill="#414042" points="49.256,173.279 59.683,173.279 59.683,115.563 139.83,115.563 139.83,173.279 150.256,173.279 
			150.256,105.543 49.256,105.543 		"/>
		<polygon fill="#414042" points="99.758,26.285 24.756,101.283 174.757,101.283 		"/>
		<polygon fill="#414042" points="119.387,144.189 120.695,150.887 78.813,150.887 80.13,144.189 78.838,144.189 76.476,156.573 
			86.705,156.573 86.705,161.811 112.809,161.811 112.809,156.573 123.037,156.573 124.037,161.811 120.675,144.189 		"/>
		<polygon fill="#414042" points="82.116,148.171 117.398,148.171 116.618,144.189 82.897,144.189 		"/>
		<path fill="#414042" d="M120.695,150.887l-1.309-6.695l-3.125-15.943H83.254l-3.124,15.941l-1.316,6.696L120.695,150.887
			L120.695,150.887z M85.487,130.96h28.535l2.597,13.229l0.78,3.98H82.116l0.781-3.98L85.487,130.96z"/>
		<rect x="114.367" y="167.547" fill="#414042" width="7.332" height="5.732"/>
		<polygon fill="#414042" points="114.367,167.547 121.699,167.547 124.037,167.547 124.037,163.154 75.473,163.154 75.473,167.547 
			77.813,167.547 77.813,173.279 85.148,173.279 85.148,167.547 		"/>
	</g>
</g>
<g id="Layer_12" display="none">
	<g display="inline">
		<rect x="81.451" y="150.395" fill="#414042" width="38.49" height="7.66"/>
		<polygon fill="#414042" points="81.451,170.887 91.449,170.887 91.449,177.492 109.938,177.492 109.938,170.887 119.941,170.887 
			119.941,163.223 81.451,163.223 		"/>
		<path fill="#414042" d="M100.691,56.301c-23.649,0-42.828,19.174-42.828,42.833c0,16.351,9.168,30.56,22.641,37.778v6.938h38.491
			v-5.992c14.498-6.861,24.527-21.619,24.527-38.723C143.523,75.475,124.352,56.301,100.691,56.301z M100.996,127.411l-0.305-0.306
			l-0.303,0.306L81.242,108.27l5.818-5.822l13.629,13.641l13.643-13.641l5.814,5.822L100.996,127.411z"/>
		<path fill="#414042" d="M100.691,47.486c4.16,0,7.525-3.369,7.525-7.529V29.422c0-4.154-3.365-7.52-7.525-7.52
			c-4.153,0-7.525,3.366-7.525,7.52v10.535C93.167,44.117,96.539,47.486,100.691,47.486z"/>
		<path fill="#414042" d="M125.986,54.777c3.574,2.126,8.19,0.954,10.315-2.624l5.386-9.057c2.121-3.571,0.945-8.186-2.629-10.309
			c-3.565-2.126-8.185-0.954-10.308,2.624l-5.388,9.05C121.238,48.039,122.416,52.65,125.986,54.777z"/>
		<path fill="#414042" d="M154.208,76.985l9.259-5.028c3.646-1.988,4.999-6.556,3.016-10.207c-1.984-3.654-6.555-5.005-10.205-3.018
			l-9.256,5.032c-3.649,1.984-4.998,6.552-3.019,10.203C145.988,77.625,150.555,78.966,154.208,76.985z"/>
		<path fill="#414042" d="M168.016,92.847l-10.523-0.404c-4.156-0.156-7.652,3.078-7.813,7.231c-0.158,4.15,3.08,7.649,7.234,7.809
			l10.525,0.404c4.147,0.158,7.646-3.08,7.805-7.232C175.406,96.504,172.17,93.006,168.016,92.847z"/>
		<path fill="#414042" d="M160.664,128.17l-8.835-5.729c-3.493-2.26-8.146-1.258-10.408,2.227
			c-2.258,3.488-1.262,8.146,2.226,10.409l8.845,5.728c3.487,2.26,8.146,1.26,10.407-2.229
			C165.156,135.09,164.163,130.434,160.664,128.17z"/>
		<path fill="#414042" d="M64.192,52.154c2.127,3.578,6.745,4.75,10.319,2.624c3.566-2.127,4.742-6.738,2.62-10.316l-5.385-9.05
			c-2.124-3.578-6.741-4.75-10.313-2.624c-3.569,2.124-4.745,6.738-2.62,10.309L64.192,52.154z"/>
		<path fill="#414042" d="M37.035,71.957l9.252,5.028c3.654,1.981,8.225,0.64,10.208-3.018c1.987-3.651,0.633-8.219-3.018-10.203
			l-9.255-5.032C40.571,56.745,36,58.097,34.017,61.75C32.029,65.401,33.381,69.969,37.035,71.957z"/>
		<path fill="#414042" d="M50.82,99.674c-0.164-4.154-3.654-7.387-7.813-7.231l-10.522,0.404c-4.153,0.159-7.393,3.657-7.229,7.807
			c0.156,4.152,3.647,7.391,7.805,7.232l10.528-0.404C47.736,107.323,50.981,103.824,50.82,99.674z"/>
		<path fill="#414042" d="M48.666,122.441l-8.838,5.729c-3.492,2.264-4.485,6.92-2.226,10.405c2.261,3.487,6.92,4.487,10.407,2.229
			l8.842-5.729c3.486-2.264,4.483-6.922,2.228-10.409C56.815,121.184,52.159,120.184,48.666,122.441z"/>
	</g>
</g>
<g id="Layer_13" display="none">
	<path display="inline" fill="#414042" d="M148.68,32.359v-8.228c0-8.225-5.897-14.838-13.229-14.838H38.729
		c-7.335,0-13.227,6.613-13.227,14.838V175.74c0,8.224,5.892,14.841,13.227,14.841h96.721c7.332,0,13.229-6.617,13.229-14.841
		v-10.725v-35.763H81.63c-14.475,0-26.09-13.229-26.09-29.316l0,0c0-16.093,11.616-29.327,26.09-29.327h67.05V32.359L148.68,32.359z
		 M175.5,49.341l-18.951-0.355v3.933l-0.541,106.378v4.643l18.951,0.359C175.141,144.275,175.318,69.362,175.5,49.341L175.5,49.341z
		 M174.959,167.16v-2.145l-18.951-0.178l-0.174,6.973l18.943,0.179L174.959,167.16z M166.201,24.842
		c-0.715,0-1.439,0.545-1.795,1.437l-7.857,21.1l18.951,0.174l-7.514-21.092C167.631,25.387,166.916,24.842,166.201,24.842
		L166.201,24.842z M174.959,175.025v-2.142l-18.951-0.354l-0.174,6.966l18.943,0.182L174.959,175.025z M174.959,182.713v-2.141
		l-18.951-0.359l-0.174,6.969l18.943,0.355L174.959,182.713z M82.167,83.126h58.647c1.967,0,3.576,1.611,3.576,3.585l0,0
		c0,1.958-1.609,3.569-3.576,3.569H82.167c-1.959,0-3.57-1.611-3.57-3.569l0,0C78.598,84.737,80.208,83.126,82.167,83.126
		L82.167,83.126z M82.167,95.113h58.647c1.967,0,3.576,1.603,3.576,3.569l0,0c0,1.966-1.609,3.578-3.576,3.578H82.167
		c-1.959,0-3.57-1.611-3.57-3.578l0,0C78.598,96.716,80.208,95.113,82.167,95.113L82.167,95.113z M82.167,107.092h29.504
		c1.963,0,3.565,1.607,3.565,3.569l0,0c0,1.974-1.604,3.759-3.565,3.759H82.167c-1.959,0-3.57-1.785-3.57-3.759l0,0
		C78.598,108.699,80.208,107.092,82.167,107.092L82.167,107.092z"/>
</g>
<g id="Layer_14">
	<g>
		<path fill="#FFFFFF" d="M132.938,103.482c0.478,0,0.945-0.115,1.431-0.115c5.706-0.045,8.536-2.872,8.608-8.608
			c0.084-5.626,2.565-9.852,7.428-12.835c4.886-2.794,5.884-6.756,3.146-11.778c-2.728-4.829-2.728-9.859,0-14.792
			c2.738-4.911,1.74-8.765-3.146-11.749c-4.861-2.876-7.344-7.113-7.428-12.842c-0.072-5.625-2.902-8.445-8.608-8.534
			c-5.647-0.104-9.878-2.582-12.858-7.441c-2.822-4.858-6.818-5.975-11.682-3.125c-5.016,2.723-9.877,2.723-14.888,0
			c-4.919-2.85-8.832-1.734-11.733,3.125c-2.907,4.859-7.136,7.337-12.784,7.441c-5.654,0.089-8.534,2.909-8.616,8.534
			c-0.104,5.729-2.585,9.966-7.455,12.842c-4.852,2.984-5.96,6.838-3.11,11.749c2.723,4.933,2.723,9.963,0,14.792
			c-2.85,5.022-1.741,8.984,3.11,11.778c4.87,2.983,7.351,7.209,7.455,12.835c0,4.021,1.48,6.556,4.233,7.851L43.957,179.32
			l26.102-19.996l11.48,30.792l17.883-62.046l17.771,62.046l11.524-30.792l26.068,19.996L132.938,103.482z M102.389,42.522
			l3.979,14.022h13.153l-10.625,8.608l4.086,14.029l-10.596-8.712l-10.655,8.712l4.07-14.029l-10.641-8.608h13.141L102.389,42.522z
			 M102.389,93.754c-17.07,0-31.021-13.854-31.021-30.971c0-17.146,13.952-30.993,31.021-30.993
			c17.135,0,31.025,13.847,31.025,30.993C133.414,79.9,119.521,93.754,102.389,93.754L102.389,93.754z"/>
	</g>
</g>
</svg>
