<?xml version="1.0" encoding="utf-8"?>
<!-- Generator: Adobe Illustrator 16.0.0, SVG Export Plug-In . SVG Version: 6.00 Build 0)  -->
<!DOCTYPE svg PUBLIC "-//W3C//DTD SVG 1.1//EN" "http://www.w3.org/Graphics/SVG/1.1/DTD/svg11.dtd">
<svg version="1.1" id="Layer_1" xmlns="http://www.w3.org/2000/svg" xmlns:xlink="http://www.w3.org/1999/xlink" x="0px" y="0px"
	 width="200px" height="200px" viewBox="0 0 200 200" enable-background="new 0 0 200 200" xml:space="preserve">
<g id="bg" display="none">
	<rect display="inline" fill="#FFFFFF" fill-opacity="0" width="200" height="200"/>
</g>
<g id="Layer_1_1_" display="none">
	<g display="inline">
		<path fill="#414042" d="M99.859,190.008c-15.264,0-30.554-0.564-45.785,0.148c-17.639,0.826-27.248-12.706-28.5-25.456
			c-1.701-17.334,0.296-34.49,7.212-50.716c4.92-11.543,13.148-19.294,26.019-21.277c2.734-0.417,4.861-0.018,7.125,1.971
			c19.509,17.162,48.765,17.162,68.265-0.013c2.271-1.992,4.434-2.393,7.139-1.966c13.324,2.114,21.559,10.34,26.461,22.335
			c4.842,11.823,6.786,24.241,7.116,36.974c0.19,7.525,0.392,14.99-3.036,22.016c-4.968,10.166-12.432,16.213-24.352,16.043
			C131.639,189.834,115.747,190.008,99.859,190.008z"/>
		<path fill="#414042" d="M145.053,54.682c0.004,25.08-19.953,45.15-44.937,45.185c-24.964,0.039-44.867-19.879-45.042-45.072
			C54.902,30.09,74.995,9.889,99.815,9.809C124.895,9.73,145.044,29.716,145.053,54.682z"/>
	</g>
</g>
<g id="Layer_3">
	<g>
		<g>
			<path fill="#FFFFFF" d="M77.622,190.1c-14.942,0-29.911-0.554-44.823,0.146c-17.268,0.813-26.675-12.435-27.901-24.916
				c-1.666-16.97,0.29-33.767,7.06-49.649c4.816-11.297,12.871-18.891,25.471-20.833c2.676-0.408,4.759-0.018,6.976,1.934
				c19.1,16.801,47.738,16.795,66.832-0.013c2.221-1.955,4.343-2.347,6.988-1.93c13.045,2.069,21.106,10.128,25.907,21.863
				c4.738,11.574,6.646,23.736,6.964,36.195c0.189,7.367,0.383,14.682-2.973,21.557c-4.859,9.953-12.172,15.867-23.839,15.705
				C108.734,189.934,93.175,190.1,77.622,190.1z"/>
			<path fill="#FFFFFF" d="M121.865,57.623c0.003,24.551-19.533,44.199-43.993,44.236C53.433,101.898,33.947,82.4,33.778,57.734
				c-0.168-24.184,19.501-43.96,43.8-44.041C102.133,13.616,121.855,33.184,121.865,57.623z"/>
		</g>
		<g>
			<path fill="#FFFFFF" d="M190.468,44.528h-47.797c-2.856,0-5.194,2.343-5.194,5.196v33.774c0,2.857,2.338,5.195,5.194,5.195
				h47.797c2.857,0,5.195-2.338,5.195-5.195V49.724C195.663,46.871,193.325,44.528,190.468,44.528z M170.984,65.825v11.438h-8.832
				V65.825c-1.584-1.285-2.598-3.249-2.598-5.446c0-3.875,3.139-7.018,7.014-7.018s7.013,3.143,7.013,7.018
				C173.581,62.576,172.568,64.539,170.984,65.825z"/>
			<path fill="#FFFFFF" d="M157.998,39.337v-9.569c0-6.038,2.559-10.936,5.714-10.936h5.71c3.16,0,5.721,4.896,5.721,10.936v9.569
				h10.131V20.656c0-6.038-5.584-10.936-12.469-10.936h-12.47c-6.892,0-12.469,4.896-12.469,10.936v18.681H157.998z"/>
		</g>
	</g>
</g>
</svg>
