<?xml version="1.0" encoding="utf-8"?>
<!-- Generator: Adobe Illustrator 16.0.0, SVG Export Plug-In . SVG Version: 6.00 Build 0)  -->
<!DOCTYPE svg PUBLIC "-//W3C//DTD SVG 1.1//EN" "http://www.w3.org/Graphics/SVG/1.1/DTD/svg11.dtd">
<svg version="1.1" id="Layer_1" xmlns="http://www.w3.org/2000/svg" xmlns:xlink="http://www.w3.org/1999/xlink" x="0px" y="0px"
	 width="200px" height="200px" viewBox="0 0 200 200" enable-background="new 0 0 200 200" xml:space="preserve">
<g id="Layer_2" display="none">
	<rect display="inline" fill="#FFFFFF" fill-opacity="0" width="200" height="200"/>
</g>
<g id="Layer_1_1_" display="none">
	<g display="inline">
		<path fill="#414042" d="M99.859,190.008c-15.264,0-30.554-0.564-45.785,0.148c-17.639,0.826-27.248-12.706-28.5-25.456
			c-1.701-17.334,0.296-34.49,7.212-50.716c4.92-11.543,13.148-19.294,26.019-21.277c2.734-0.417,4.861-0.018,7.125,1.971
			c19.509,17.162,48.765,17.162,68.265-0.013c2.271-1.992,4.434-2.393,7.139-1.966c13.324,2.114,21.559,10.34,26.461,22.335
			c4.842,11.823,6.786,24.241,7.116,36.974c0.19,7.525,0.392,14.99-3.036,22.016c-4.968,10.166-12.432,16.213-24.352,16.043
			C131.639,189.834,115.747,190.008,99.859,190.008z"/>
		<path fill="#414042" d="M145.053,54.682c0.004,25.08-19.953,45.15-44.937,45.185c-24.964,0.039-44.867-19.879-45.042-45.072
			C54.902,30.09,74.995,9.889,99.815,9.809C124.895,9.73,145.044,29.716,145.053,54.682z"/>
	</g>
</g>
<g id="Layer_3" display="none">
	<g display="inline">
		<g>
			<path fill="#414042" d="M82.455,170.639c-11.715,0-23.45-0.435-35.141,0.113c-13.538,0.639-20.913-9.749-21.875-19.534
				c-1.306-13.305,0.227-26.473,5.535-38.926c3.776-8.856,10.091-14.81,19.97-16.333c2.098-0.32,3.731-0.014,5.469,1.516
				c14.974,13.171,37.427,13.167,52.396-0.01c1.741-1.533,3.404-1.84,5.479-1.513c10.229,1.622,16.549,7.94,20.313,17.141
				c3.715,9.074,5.209,18.609,5.459,28.378c0.148,5.776,0.301,11.51-2.33,16.9c-3.812,7.803-9.543,12.439-18.689,12.313
				C106.848,170.508,94.649,170.639,82.455,170.639z"/>
			<path fill="#414042" d="M117.143,66.776c0.002,19.248-15.313,34.652-34.491,34.682c-19.161,0.03-34.437-15.257-34.57-34.595
				c-0.132-18.96,15.289-34.465,34.339-34.528C101.672,32.275,117.135,47.616,117.143,66.776z"/>
		</g>
		<g>
			<path fill="#414042" d="M170.927,56.51h-37.473c-2.24,0-4.073,1.836-4.073,4.073v26.479c0,2.24,1.833,4.073,4.073,4.073h37.473
				c2.24,0,4.073-1.833,4.073-4.073V60.583C175,58.346,173.167,56.51,170.927,56.51z M155.652,73.207v8.968h-6.924v-8.968
				c-1.242-1.008-2.037-2.547-2.037-4.27c0-3.038,2.461-5.502,5.498-5.502c3.039,0,5.498,2.464,5.498,5.502
				C157.688,70.659,156.895,72.198,155.652,73.207z"/>
			<path fill="#414042" d="M145.471,52.44v-7.502c0-4.734,2.006-8.574,4.479-8.574h4.477c2.478,0,4.484,3.839,4.484,8.574v7.502
				h7.942V37.794c0-4.734-4.377-8.574-9.775-8.574h-9.775c-5.402,0-9.775,3.839-9.775,8.574V52.44H145.471z"/>
		</g>
	</g>
</g>
<g id="Layer_4" display="none">
	<g display="inline">
		<path fill="#414042" d="M96.741,75.405L96.741,75.405c-1.454,2.375-2.591,4.819-3.279,7.392
			c-4.453,15.387,1.826,32.368,16.427,40.646c2.379,1.477,4.807,2.442,7.375,3.346c3.01,0.777,5.938,1.318,8.918,1.318
			l18.243,53.961c1.317,3.684,4.318,6.26,7.791,7.377c2.243,0.771,4.606,0.771,7.036-0.204l2.007-0.558
			c3.697-1.254,6.292-4.201,7.386-7.727c0.563-2.223,0.779-4.809-0.145-7.036l-18.293-54.153c3.134-2.584,5.689-5.709,7.729-9.408
			c1.453-2.428,2.558-4.795,3.323-7.371c4.466-15.387-1.87-32.38-16.417-40.729c-2.449-1.464-4.806-2.576-7.377-3.276
			C122.08,54.329,105.096,60.796,96.741,75.405L96.741,75.405z M56.445,61.565h37.852c0.482,0,0.924,0.204,1.186,0.564
			c0.344,0.271,0.553,0.752,0.553,1.177v5.985c0,0.418-0.209,0.909-0.553,1.186c-0.261,0.355-0.704,0.492-1.186,0.492H56.445
			c-0.515,0-0.913-0.136-1.253-0.492c-0.292-0.277-0.501-0.768-0.501-1.186v-5.985c0-0.424,0.209-0.906,0.501-1.177
			C55.532,61.769,55.931,61.565,56.445,61.565L56.445,61.565z M56.445,118.005h35.35c0.491,0,0.899,0.224,1.259,0.58
			c0.276,0.263,0.49,0.688,0.49,1.185v5.91c0,0.486-0.213,0.967-0.49,1.256c-0.36,0.338-0.768,0.484-1.259,0.484h-35.35
			c-0.515,0-0.913-0.146-1.253-0.484c-0.292-0.289-0.501-0.77-0.501-1.256v-5.91c0-0.496,0.209-0.922,0.501-1.185
			C55.532,118.229,55.931,118.005,56.445,118.005L56.445,118.005z M56.445,99.229h30.97c0.486,0,0.896,0.208,1.186,0.471
			c0.34,0.368,0.559,0.774,0.559,1.269v5.917c0,0.474-0.219,0.898-0.559,1.255c-0.29,0.273-0.7,0.471-1.186,0.471h-30.97
			c-0.515,0-0.913-0.195-1.253-0.471c-0.292-0.354-0.501-0.781-0.501-1.255v-5.917c0-0.495,0.209-0.901,0.501-1.269
			C55.532,99.438,55.931,99.229,56.445,99.229L56.445,99.229z M56.445,80.42h30.97c0.486,0,0.896,0.212,1.186,0.501
			c0.34,0.348,0.559,0.758,0.559,1.247v5.925c0,0.478-0.219,0.915-0.559,1.178c-0.29,0.338-0.7,0.553-1.186,0.553h-30.97
			c-0.515,0-0.913-0.214-1.253-0.553c-0.292-0.263-0.501-0.7-0.501-1.178v-5.925c0-0.489,0.209-0.899,0.501-1.247
			C55.532,80.632,55.931,80.42,56.445,80.42L56.445,80.42z M101.757,85.031L101.757,85.031
			c3.882-13.854,18.517-22.003,32.354-17.887c13.863,3.824,22,18.426,17.894,32.293c-3.83,13.856-18.437,21.985-32.284,17.956
			C105.863,113.486,97.715,98.881,101.757,85.031L101.757,85.031z M76.399,34.428L76.399,34.428c-2.018,0-3.673,1.026-3.673,2.561
			c0,1.463,0,4.938,0,4.938h52.137c0,0,0-3.474,0-4.938c0-1.534-1.661-2.561-3.695-2.561h-11.053V13.669
			c-11.492-8.136-22.572-0.201-22.572-0.201v20.96H76.399z M166.637,28.087L166.637,28.087v94.659v3.273l-0.213,27.021
			c0,1.315-0.355,2.577-0.91,3.553l-12.173-36.067c2.771-2.57,5.146-5.567,7.022-8.903c1.464-2.358,2.572-5.159,3.34-7.942
			l0.146-0.148c4.108-14.049-0.373-28.862-10.724-38.49V38.097c0-0.977-0.347-1.652-0.911-2.215
			c-0.755-0.768-1.469-0.979-2.443-0.979h-24.549c-0.927-1.029-2.591-1.597-4.056-1.597h-9.955V21.459h48.597
			c2.02,0,3.486,0.567,4.809,1.822C165.865,24.599,166.637,26.275,166.637,28.087L166.637,28.087z M134.111,159.852L134.111,159.852
			H38.194c-2.018,0-3.549-0.679-4.793-2.021c-1.335-1.237-2.031-2.917-2.031-4.79l0.145-30.295V28.087
			c0-1.812,0.78-3.489,2.018-4.806c1.321-1.255,2.771-1.822,4.796-1.822h48.106v11.847H76.399c-1.253,0-2.905,0.568-3.816,1.597
			H48.15c-0.698,0-1.674,0.21-2.234,0.979c-0.551,0.563-0.905,1.238-0.905,2.215v84.649v3.273l-0.199,17.063
			c0,0.896,0.423,1.663,0.967,2.372c0.697,0.545,1.474,0.916,2.371,0.916h81.298L134.111,159.852z"/>
	</g>
</g>
<g id="Layer_5" display="none">
	<g display="inline">
		<path fill="#414042" d="M124.584,94.449c-3.229-13.295-16.621-21.454-29.917-18.225c-13.297,3.228-21.458,16.624-18.23,29.917
			c3.228,13.299,16.626,21.455,29.92,18.229C119.654,121.139,127.813,107.743,124.584,94.449z M112.014,110.199
			c-1.369,1.374-3.004,2.427-4.863,3.207l1.104,4.525l-5.815,1.408l-1.09-4.479c-5.669,0.631-9.546-1.334-11.6-5.943l5.984-1.975
			c1.172,2.854,3.715,3.805,7.625,2.855c3.664-0.891,5.19-2.576,4.591-5.061c-0.269-1.1-0.908-1.813-1.935-2.133
			c-1.018-0.323-3.246-0.406-6.687-0.248c-3.437,0.15-6.047-0.248-7.825-1.213c-1.776-0.965-2.902-2.429-3.379-4.389
			c-0.51-2.106-0.007-4.119,1.512-6.03c1.118-1.409,2.803-2.529,5.038-3.369l-1.187-4.874l5.816-1.415L100.498,86
			c5.166-0.575,8.395,1.035,9.632,4.892l-6.121,1.722c-0.604-1.787-2.514-2.292-5.74-1.507c-3.232,0.783-4.641,2.041-4.223,3.763
			c0.256,1.056,0.96,1.697,2.12,1.919c1.157,0.222,3.384,0.255,6.678,0.09c3.297-0.16,5.854,0.285,7.674,1.344
			c1.818,1.058,3.012,2.718,3.56,4.985C114.715,105.855,114.029,108.189,112.014,110.199z"/>
		<path fill="#414042" d="M158.867,49.836L25.513,82.218l16.64,68.534l133.361-32.383L158.867,49.836z M45.735,128.098l-6.88-28.34
			c4.987-2.792,8.17-8.018,8.363-13.728l94.108-22.852c2.794,4.984,8.02,8.17,13.73,8.364l6.883,28.336
			c-5.282,2.956-8.551,8.642-8.381,14.738l-93.623,22.735C57.293,131.852,51.781,128.301,45.735,128.098z"/>
		<path fill="#414042" d="M65.713,108.684c0.727,3.004-1.115,6.024-4.116,6.754c-2.997,0.729-6.021-1.111-6.75-4.114
			c-0.729-2.999,1.115-6.021,4.114-6.755C61.964,103.838,64.986,105.684,65.713,108.684z"/>
		<path fill="#414042" d="M145.664,89.269c0.729,3.002-1.111,6.023-4.117,6.752c-2.996,0.731-6.021-1.111-6.754-4.114
			c-0.729-2.998,1.117-6.021,4.117-6.754C141.912,84.427,144.936,86.266,145.664,89.269z"/>
	</g>
</g>
<g id="Layer_6" display="none">
	<g display="inline">
		<g>
			<path fill="#414042" d="M25,72.537h10.758v4.945c-1.284,0.735-2.276,1.676-2.983,2.818c-1.174,1.862-1.969,4.052-2.38,6.586
				l-0.405,2.495c-0.135,0.791-0.431,1.413-0.878,1.862c-0.453,0.45-1.022,0.672-1.701,0.672c-0.707,0-1.284-0.243-1.736-0.735
				C25.228,90.689,25,90.053,25,89.262V72.537z M57.224,72.537v48.05c0,1.06,0.208,1.826,0.613,2.289
				c0.222,0.271,0.425,0.44,0.615,0.506c0.189,0.072,0.817,0.241,1.879,0.517c1.312,0.297,1.959,1.053,1.959,2.248
				c0,0.711-0.351,1.277-1.058,1.718c-0.519,0.327-1.391,0.493-2.62,0.493h-1.349H39.029H37.68c-1.201,0-2.11-0.187-2.72-0.553
				c-0.615-0.367-0.925-0.926-0.925-1.658c0-1.195,0.656-1.951,1.963-2.248c1.068-0.273,1.695-0.442,1.885-0.517
				c0.189-0.063,0.377-0.235,0.573-0.506c0.41-0.463,0.614-1.229,0.614-2.289v-48.05H57.224L57.224,72.537z M71.375,72.537v16.725
				c0,0.791-0.226,1.428-0.679,1.919c-0.447,0.492-1.03,0.735-1.736,0.735c-0.685,0-1.247-0.222-1.695-0.672
				c-0.454-0.449-0.744-1.071-0.879-1.862l-0.411-2.495c-0.411-2.534-1.2-4.724-2.374-6.586c-0.734-1.143-1.727-2.083-2.984-2.818
				v-4.945L71.375,72.537L71.375,72.537z"/>
			<path fill="#414042" d="M89.981,82.92l2.084,8.464l-7.24,26.423c-0.216,0.764-0.327,1.469-0.327,2.125
				c0,1.715,0.803,2.944,2.41,3.678l1.438,0.656c0.895,0.409,1.349,1.09,1.349,2.045c0,1.363-0.995,2.047-2.984,2.047H76.322
				c-1.005,0-1.806-0.213-2.392-0.637c-0.587-0.423-0.876-1.004-0.876-1.738c0-0.789,0.593-1.445,1.796-1.963
				c1.118-0.49,1.944-0.932,2.476-1.326c0.532-0.396,1.044-0.937,1.533-1.619c0.761-1.114,1.39-2.602,1.88-4.451L89.981,82.92z
				 M92.804,72.537h16.475l11.373,48.05c0.217,0.843,0.463,1.59,0.734,2.245c0.242,0.518,0.787,0.943,1.635,1.264
				c0.711,0.309,1.201,0.604,1.474,0.902c0.274,0.307,0.409,0.714,0.409,1.229c0,1.418-1.062,2.129-3.189,2.129h-20.406
				c-0.816,0-1.474-0.195-1.958-0.596c-0.494-0.396-0.738-0.918-0.738-1.576c0-0.541,0.111-0.949,0.328-1.221
				c0.216-0.279,0.707-0.622,1.472-1.027c0.54-0.268,0.925-0.574,1.146-0.896c0.215-0.328,0.323-0.738,0.323-1.235
				c0-0.457-0.036-0.865-0.118-1.218l-1.313-5.935H89.039l1.109-4.865h9.16l-7.529-33.248L92.804,72.537z"/>
			<path fill="#414042" d="M150.547,79.684l20.568,41.841c0.494,0.955,1.16,1.648,2.006,2.084c0.732,0.384,1.23,0.731,1.49,1.064
				c0.261,0.323,0.389,0.776,0.389,1.348c0,0.735-0.271,1.33-0.816,1.765c-0.463,0.384-1.447,0.571-2.947,0.571h-19.18
				c-1.467,0-2.427-0.099-2.865-0.293c-0.948-0.403-1.433-1.101-1.433-2.082c0-0.354,0.099-0.664,0.294-0.916
				c0.188-0.262,0.547-0.584,1.063-0.971c0.929-0.679,1.377-1.306,1.354-1.879c-0.035-0.461-0.281-1.154-0.74-2.081l-20.08-40.453
				c-0.334-0.673-0.687-1.213-1.065-1.605c-0.381-0.4-0.883-0.762-1.512-1.09c-0.552-0.272-0.921-0.572-1.128-0.902
				c-0.2-0.323-0.312-0.769-0.312-1.348c0-0.817,0.298-1.387,0.888-1.72c0.582-0.327,1.629-0.481,3.129-0.481h19.055
				c1.395,0,2.395,0.173,3.005,0.525c0.61,0.354,0.921,0.931,0.921,1.722c0,0.786-0.447,1.482-1.351,2.083
				c-0.41,0.302-0.688,0.555-0.835,0.758c-0.153,0.204-0.227,0.486-0.227,0.839C150.219,78.845,150.329,79.25,150.547,79.684z
				 M140.443,108.402l2.246,4.656l-2.537,4.135c-0.922,1.521-1.383,2.738-1.383,3.638c0,1.31,0.736,2.265,2.205,2.858
				c0.816,0.328,1.377,0.65,1.678,0.983c0.299,0.323,0.453,0.776,0.453,1.347c0,0.771-0.328,1.395-0.984,1.885
				c-0.246,0.193-0.516,0.313-0.814,0.365c-0.309,0.056-0.877,0.086-1.722,0.086h-10.55c-0.873,0-1.561-0.187-2.064-0.551
				c-0.509-0.367-0.762-0.88-0.762-1.537c0-0.518,0.162-0.949,0.475-1.287c0.312-0.338,0.863-0.66,1.654-0.963
				c2.045-0.787,3.627-2.088,4.751-3.881L140.443,108.402z M159.748,91.017l-2.291-4.542l2.291-3.883
				c0.516-0.896,0.775-1.678,0.775-2.329c0-0.596-0.187-1.187-0.549-1.761c-0.377-0.571-0.854-0.998-1.457-1.264l-1.429-0.655
				c-0.272-0.135-0.516-0.4-0.719-0.776c-0.202-0.386-0.308-0.767-0.308-1.148c0-0.65,0.231-1.172,0.691-1.548
				c0.463-0.386,1.078-0.573,1.84-0.573h11.823c0.765,0,1.397,0.163,1.896,0.506c0.51,0.343,0.764,0.786,0.764,1.331
				c0,0.656-0.244,1.225-0.733,1.712c-0.194,0.169-0.767,0.509-1.719,1.032c-1.94,1.057-3.548,2.6-4.828,4.618L159.748,91.017z"/>
		</g>
	</g>
</g>
<g id="Layer_7" display="none">
	<g display="inline">
		<g>
			<polygon fill="#414042" points="149.159,127.475 100.852,141.703 52.042,127.363 62.054,86 139.146,86 			"/>
			<g>
				<polygon fill="#414042" points="148.596,127.475 139.146,86 117,86 117,136.904 				"/>
			</g>
		</g>
		<g>
			<polygon fill="#414042" points="174.857,75.835 99.926,59.28 25,75.835 25,82.843 99.926,105.41 174.706,82.843 			"/>
			<polygon fill="#414042" points="100.23,98.4 26.012,75.835 100.23,59.28 174.857,75.835 			"/>
		</g>
		<g>
			<g>
				<path fill="#414042" d="M162.652,79.413c-0.145,0.818-0.92,1.367-1.735,1.222l-62.074-0.632c-0.818-0.14-1.365-0.92-1.223-1.735
					l0,0c0.143-0.818,0.92-1.364,1.735-1.222l62.073,0.632C162.246,77.818,162.795,78.595,162.652,79.413L162.652,79.413z"/>
				<path fill="#414042" d="M164,96.719c0,0.83-1.059,2.281-1.891,2.281h-1.862c-0.832,0-1.247-1.451-1.247-2.281V77.815
					c0-0.83,0.415-0.815,1.247-0.815h1.862c0.832,0,1.891-0.014,1.891,0.815V96.719z"/>
			</g>
			<path fill="#414042" d="M166.943,101.268c0,2.838-2.305,5.141-5.144,5.141s-5.14-2.303-5.14-5.141
				c0-2.841,2.301-5.143,5.14-5.143C164.641,96.125,166.943,98.426,166.943,101.268z"/>
			<path fill="#414042" d="M168.559,132.539c0,1.061-0.854,2.461-1.914,2.461h-9.563c-1.059,0-1.916-1.4-1.916-2.461l1.916-19.855
				c0-1.057,0.855-1.684,1.911-1.684h5.737c1.06,0,1.914,0.627,1.914,1.684L168.559,132.539z"/>
			<path fill="#414042" d="M166,108.801c0,1.41-0.131,2.199-1.225,2.199h-4.616c-1.095,0-1.159-0.789-1.159-2.199v-1.332
				c0-1.408,0.064-1.469,1.159-1.469h4.616c1.094,0,1.225,0.061,1.225,1.469V108.801z"/>
		</g>
		<ellipse fill="#414042" cx="100.485" cy="78.341" rx="9.511" ry="3.421"/>
	</g>
</g>
<g id="Layer_8" display="none">
	<path display="inline" fill="#414042" d="M174.75,90.738v63.684h-150V90.738h66.754v12.77h16.488v-12.77H174.75L174.75,90.738z
		 M75.016,44.83h49.458h1.135v1.131v16.973v1.134h-1.135h-5.016h-1.123v-1.134V51.296H81.159v11.638v1.134h-1.131h-5.011h-1.128
		v-1.134V45.961V44.83H75.016z M24.75,64.068h10.506v-1.619h4.04v1.619h1.45v-1.619h4.048v1.619h1.289v-1.619h4.2v1.619h100.224
		v-1.619h4.039v1.619h1.292v-1.619h4.037v1.619h1.458v-1.619h4.033v1.619h9.384v24.081h-66.758V73.606H91.504v14.542H24.75V64.068z
		 M94.095,76.187h11.313v24.731H94.095V76.187z M96.839,91.707h5.815v5.819h-5.815V91.707z"/>
</g>
<g id="Layer_9">
	<g>
		<path fill="#FFFFFF" d="M136.07,57.736c14.143,0.027,25.563-11.441,25.552-25.561C161.607,18.113,150.08,6.593,136.094,6.75
			c-13.92-0.143-25.484,11.307-25.49,25.378C110.602,46.322,121.925,57.703,136.07,57.736z"/>
		<path fill="#FFFFFF" d="M114.621,179.884c-0.639,4.479-0.553,8.99-0.465,13.611c2.585-0.604,4.99-1.155,7.557-1.75
			c-2.336-4.12-4.541-8.009-6.742-11.894C114.855,179.866,114.743,179.874,114.621,179.884z"/>
		<path fill="#FFFFFF" d="M71.253,185.678c-1.11,1.961-2.23,3.928-3.442,6.049c2.553,0.59,4.935,1.139,7.553,1.742
			c0.079-4.654,0.17-9.137-0.645-13.603C73.445,181.792,72.354,183.736,71.253,185.678z"/>
		<path fill="#FFFFFF" d="M54.134,79.092C68.281,79.119,79.62,67.66,79.695,53.694c0.068-14.017-11.382-25.758-25.772-25.629
			c-13.667,0.129-25.228,11.23-25.246,25.49C28.657,67.61,40.034,79.069,54.134,79.092z"/>
		<path fill="#FFFFFF" d="M195.834,108.241c-0.282-0.498-0.404-1.082-0.58-1.638c-1.135-3.465-2.268-6.929-3.393-10.398
			c-0.953-2.944-1.885-5.908-2.853-8.852c-0.71-2.167-1.114-4.457-2.166-6.447c-3.069-5.814-7.299-10.018-12.892-12.921
			c-0.104-0.056-0.479-0.11-0.585-0.165c-0.687-0.349-1.021-0.755-2.312-1.063v-0.004c0,0-0.369-0.286-1.438-0.654
			c-0.106-0.036-0.119-0.083-0.225-0.124c-0.51-0.184-0.971-0.364-1.49-0.53c-0.11-0.033-0.195-0.074-0.308-0.111
			c-0.139-0.05-0.26-0.092-0.407-0.139c-0.078-0.027-0.146-0.037-0.229-0.056c-0.244-0.064-0.479-0.073-0.726-0.046
			c-0.041,0.009-0.084-0.014-0.127-0.005c-0.699-0.147-1.479-0.281-2.313-0.401c-0.303-0.102,0.093-0.161-0.137-0.111
			c-1.092-0.129-2.914-0.229-3.752-0.281c-0.279-0.013-0.461-0.026-0.461-0.031v0.018v0.784v1.354h-0.019l0.035-1.115l-45.468,0.225
			c-5.401-0.015-10.479,0.425-15.276,2.922c-5.358,2.783-9.64,6.38-12.606,11.637c-1.603,2.838-2.912,5.675-4.285,8.634
			c-0.373,0.801-0.714,0.932-1.524,0.48c-0.097-0.056-0.208-0.115-0.305-0.165c-2.073-1.479-4.759-2.365-7.368-2.831l0.038-0.065
			c0,0-0.733-0.092-1.756-0.186c-1.751-0.22-3.328-0.88-4.58-0.894c-0.185,0-0.346-0.582-0.525-0.582c-0.083,0-0.185,0-0.263,0
			c-0.663,0-1.281,0.577-1.741,0.627c-7.976-0.037-15.952,0.701-23.933,0.746c-1.771,0.01-3.575,0.461-5.308,0.802
			c-5.999,1.185-11.221,4.104-15.505,8.496c-2.009,2.06-3.871,4.396-4.917,7.06c-1.258,3.227-2.128,6.659-3.155,9.984
			c-1.346,4.322-2.663,8.684-4.018,13.016c-1.31,4.193-2.677,8.376-3.949,12.589c-0.087,0.296-0.129,0.655-0.109,1.001
			c0.018,0.348,0.091,0.688,0.244,0.941c2.336,3.943,4.682,7.883,7.184,11.722c1.498,2.295,3.285,4.399,5.009,6.683
			c0.198-0.328,0.336-0.489,0.401-0.672c1.46-4.256,2.926-8.504,4.372-12.752c1.871-5.482,3.724-10.972,5.622-16.439
			c0.105-0.299,0.618-0.456,0.94-0.676c0.134,0.363,0.443,0.77,0.369,1.092c-0.375,1.627-0.838,3.234-1.272,4.849
			c-1.355,5.039-2.701,10.076-4.073,15.114c-1.083,3.979-2.22,7.947-3.271,11.938c-0.102,0.401,0.079,1.037,0.363,1.352
			c3.742,4.105,7.829,7.842,12.198,11.275c6.073,4.765,12.606,8.769,19.565,12.104c1.272,0.607,2.584,1.146,3.926,1.736
			c0.645-1.399,1.22-2.666,1.801-3.926c1.936-4.207,3.871-8.408,5.814-12.609c1.484-3.208,2.751-6.545,4.512-9.598
			c3.939-6.826,10.045-10.313,17.901-10.471c6.809-0.137,13.625-0.068,20.445-0.015c4.184,0.032,8.1,1.103,11.542,3.575
			c1.114,0.804,2.192,1.691,3.285,2.563c1.134,1.255,3.079,4.064,6.019,10.428c3.059,6.645,6.123,13.305,9.217,20.012
			c0.438-0.15,0.797-0.248,1.133-0.396c5.69-2.549,11.146-5.524,16.324-9.022c7.373-4.976,13.985-10.818,19.869-17.467
			c0.362-0.41,0.571-1.099,0.574-1.654c0-4.035-0.086-8.072-0.105-12.114c-0.056-11.16-0.09-22.324-0.129-33.479
			c-0.014-2.295-0.039-4.592,0.021-6.885c0.012-0.378,0.428-0.748,0.658-1.121c0.309,0.264,0.775,0.465,0.897,0.795
			c0.654,1.68,1.235,3.395,1.814,5.104c1.346,3.933,2.676,7.861,4.018,11.797c1.148,3.393,2.296,6.777,3.456,10.167
			c0.83,2.423,1.68,4.838,2.604,7.519c0.746-1.513,1.451-2.75,1.99-4.056c1.582-3.8,3.23-7.585,4.59-11.464
			c1.186-3.373,2.107-6.848,2.936-10.326C196.146,112.42,197.009,110.343,195.834,108.241z M95.688,144.432
			c-10.165,0-18.404-8.238-18.404-18.404c0-10.164,8.239-18.404,18.404-18.404c10.167,0,18.41,8.24,18.41,18.404
			C114.098,136.193,105.855,144.432,95.688,144.432z"/>
	</g>
</g>
</svg>
